EESchema Schematic File Version 2
LIBS:power
LIBS:device
LIBS:transistors
LIBS:conn
LIBS:linear
LIBS:regul
LIBS:74xx
LIBS:cmos4000
LIBS:adc-dac
LIBS:memory
LIBS:xilinx
LIBS:microcontrollers
LIBS:dsp
LIBS:microchip
LIBS:analog_switches
LIBS:motorola
LIBS:texas
LIBS:intel
LIBS:audio
LIBS:interface
LIBS:digital-audio
LIBS:philips
LIBS:display
LIBS:cypress
LIBS:siliconi
LIBS:opto
LIBS:atmel
LIBS:contrib
LIBS:valves
LIBS:my-displays
LIBS:my-microcontrollers
LIBS:my-batteries
LIBS:my-switches
LIBS:my-power-supplies
LIBS:my-power
LIBS:battery-holder-cache
EELAYER 25 0
EELAYER END
$Descr A4 11693 8268
encoding utf-8
Sheet 1 1
Title ""
Date ""
Rev ""
Comp ""
Comment1 ""
Comment2 ""
Comment3 ""
Comment4 ""
$EndDescr
$Comp
L Battery BT1
U 1 1 5DD2B049
P 5350 3750
F 0 "BT1" H 5100 3800 50  0000 L CNN
F 1 "18650" H 5450 3700 50  0000 L CNN
F 2 "Diodes_ThroughHole:Diode_DO-41_SOD81_Horizontal_RM10" V 5350 3790 50  0001 C CNN
F 3 "" V 5350 3790 50  0000 C CNN
	1    5350 3750
	1    0    0    -1  
$EndComp
$Comp
L MT3608-MODULE U1
U 1 1 5DD2B127
P 7200 3550
F 0 "U1" H 7200 3800 60  0000 C CNN
F 1 "MT3608-MODULE" H 6800 3300 60  0000 L CNN
F 2 "myPowerSupplies:MT3608-MODULE" H 7200 3550 60  0001 C CNN
F 3 "" H 7200 3550 60  0000 C CNN
	1    7200 3550
	1    0    0    -1  
$EndComp
$Comp
L SWITCH-SPDT SW1
U 1 1 5DD2B194
P 5650 3400
F 0 "SW1" H 5450 3550 50  0000 C CNN
F 1 "ON-OFF" H 5700 3250 50  0000 C CNN
F 2 "mySwitches:SW_E-Switch_EG1206_SPST_Angled" H 5650 3400 50  0001 C CNN
F 3 "" H 5650 3400 50  0000 C CNN
	1    5650 3400
	1    0    0    -1  
$EndComp
$Comp
L GND #PWR01
U 1 1 5DD2B3E9
P 6350 4400
F 0 "#PWR01" H 6350 4150 50  0001 C CNN
F 1 "GND" H 6350 4250 50  0000 C CNN
F 2 "" H 6350 4400 50  0000 C CNN
F 3 "" H 6350 4400 50  0000 C CNN
	1    6350 4400
	1    0    0    -1  
$EndComp
$Comp
L GND #PWR02
U 1 1 5DD2B410
P 7950 3750
F 0 "#PWR02" H 7950 3500 50  0001 C CNN
F 1 "GND" H 7950 3600 50  0000 C CNN
F 2 "" H 7950 3750 50  0000 C CNN
F 3 "" H 7950 3750 50  0000 C CNN
	1    7950 3750
	1    0    0    -1  
$EndComp
$Comp
L U1V11F5-MODULE U2
U 1 1 5DD2B45E
P 7200 4200
F 0 "U2" H 7200 4350 60  0000 C CNN
F 1 "U1V11F5-MODULE" H 6800 4450 60  0000 L CNN
F 2 "myPowerSupplies:U1V11F5-MODULE" H 7200 4200 60  0001 C CNN
F 3 "" H 7200 4200 60  0000 C CNN
	1    7200 4200
	1    0    0    -1  
$EndComp
$Comp
L Battery BT2
U 1 1 5DD2BD59
P 4850 3750
F 0 "BT2" H 4600 3800 50  0000 L CNN
F 1 "16340" H 4950 3700 50  0000 L CNN
F 2 "myBatteries:16340" V 4850 3790 50  0001 C CNN
F 3 "" V 4850 3790 50  0000 C CNN
	1    4850 3750
	1    0    0    -1  
$EndComp
$Comp
L TP4056-MODULE U3
U 1 1 5DD2C7ED
P 3600 3750
F 0 "U3" H 3500 3650 60  0000 C CNN
F 1 "TP4056-MODULE" H 3450 3750 60  0000 C CNN
F 2 "myModules:TP4056-CHARGER" H 3600 3750 60  0001 C CNN
F 3 "" H 3600 3750 60  0000 C CNN
	1    3600 3750
	1    0    0    -1  
$EndComp
$Comp
L GND #PWR03
U 1 1 5DD2CB06
P 4550 4100
F 0 "#PWR03" H 4550 3850 50  0001 C CNN
F 1 "GND" H 4550 3950 50  0000 C CNN
F 2 "" H 4550 4100 50  0000 C CNN
F 3 "" H 4550 4100 50  0000 C CNN
	1    4550 4100
	1    0    0    -1  
$EndComp
$Comp
L CONN_01X03 P1
U 1 1 5DD3A1E4
P 8850 3600
F 0 "P1" H 8850 3800 50  0000 C CNN
F 1 "OUT" V 8950 3600 50  0000 C CNN
F 2 "Pin_Headers:Pin_Header_Straight_1x03" H 8850 3600 50  0001 C CNN
F 3 "" H 8850 3600 50  0000 C CNN
	1    8850 3600
	1    0    0    -1  
$EndComp
$Comp
L +3.7V #PWR04
U 1 1 5DD3A28C
P 4850 3300
F 0 "#PWR04" H 4850 3150 50  0001 C CNN
F 1 "+3.7V" H 4850 3450 50  0000 C CNN
F 2 "" H 4850 3300 50  0000 C CNN
F 3 "" H 4850 3300 50  0000 C CNN
	1    4850 3300
	1    0    0    -1  
$EndComp
$Comp
L +3.7V #PWR05
U 1 1 5DD3A2ED
P 8500 3400
F 0 "#PWR05" H 8500 3250 50  0001 C CNN
F 1 "+3.7V" H 8500 3550 50  0000 C CNN
F 2 "" H 8500 3400 50  0000 C CNN
F 3 "" H 8500 3400 50  0000 C CNN
	1    8500 3400
	1    0    0    -1  
$EndComp
$Comp
L R R1
U 1 1 5DD3AAAF
P 6850 4700
F 0 "R1" V 6930 4700 50  0000 C CNN
F 1 "100K" V 6850 4700 50  0000 C CNN
F 2 "Resistors_ThroughHole:Resistor_Horizontal_RM10mm" V 6780 4700 50  0001 C CNN
F 3 "" H 6850 4700 50  0000 C CNN
	1    6850 4700
	0    1    1    0   
$EndComp
Wire Wire Line
	5350 3500 5350 3600
Wire Wire Line
	6000 3450 6650 3450
Wire Wire Line
	7750 3450 7850 3450
Wire Wire Line
	8150 3500 8650 3500
Wire Wire Line
	7950 3600 8650 3600
Wire Wire Line
	7750 3650 7950 3650
Wire Wire Line
	6350 3650 6350 4400
Wire Wire Line
	6350 3650 6650 3650
Wire Wire Line
	6650 4100 6550 4100
Wire Wire Line
	6550 3450 6550 4700
Connection ~ 6550 3450
Wire Wire Line
	6350 4300 6650 4300
Connection ~ 6350 4300
Wire Wire Line
	7200 4600 7200 4700
Connection ~ 6550 4100
Wire Wire Line
	7850 3450 7850 4100
Wire Wire Line
	7950 3600 7950 3750
Connection ~ 7950 3650
Wire Wire Line
	7850 4100 7750 4100
Connection ~ 7850 3500
Wire Wire Line
	4850 3900 4850 4000
Wire Wire Line
	4650 4000 5350 4000
Wire Wire Line
	4850 3300 4850 3600
Wire Wire Line
	4650 3500 5350 3500
Wire Wire Line
	5350 4000 5350 3900
Wire Wire Line
	4250 3500 4150 3500
Wire Wire Line
	4250 3100 4250 3500
Wire Wire Line
	4250 3400 5400 3400
Wire Wire Line
	4150 4000 4550 4000
Wire Wire Line
	4550 4000 4550 4100
Wire Wire Line
	4150 3850 4650 3850
Wire Wire Line
	4650 3850 4650 4000
Connection ~ 4850 4000
Wire Wire Line
	4650 3650 4150 3650
Wire Wire Line
	4650 3100 4650 3650
Connection ~ 4850 3500
Wire Wire Line
	8650 3700 8500 3700
Wire Wire Line
	8500 3700 8500 3400
Wire Wire Line
	7200 4700 7000 4700
Wire Wire Line
	6550 4700 6700 4700
$Comp
L L_Small L1
U 1 1 5DD3C1C7
P 8050 3500
F 0 "L1" V 8150 3550 50  0000 L CNN
F 1 "1mH" V 8150 3300 50  0000 L CNN
F 2 "myPassives:inductor-D8.7-L12-P5" H 8050 3500 50  0001 C CNN
F 3 "" H 8050 3500 50  0000 C CNN
	1    8050 3500
	0    -1   -1   0   
$EndComp
Wire Wire Line
	7850 3500 7950 3500
$Comp
L CP C1
U 1 1 5DD3C305
P 8250 3850
F 0 "C1" H 8275 3950 50  0000 L CNN
F 1 "470µF" H 8275 3750 50  0000 L CNN
F 2 "Capacitors_ThroughHole:C_Radial_D8_L13_P3.8" H 8288 3700 50  0001 C CNN
F 3 "" H 8250 3850 50  0000 C CNN
	1    8250 3850
	1    0    0    -1  
$EndComp
Wire Wire Line
	8250 3700 8250 3500
Connection ~ 8250 3500
$Comp
L GND #PWR06
U 1 1 5DD3C382
P 8250 4100
F 0 "#PWR06" H 8250 3850 50  0001 C CNN
F 1 "GND" H 8250 3950 50  0000 C CNN
F 2 "" H 8250 4100 50  0000 C CNN
F 3 "" H 8250 4100 50  0000 C CNN
	1    8250 4100
	1    0    0    -1  
$EndComp
Wire Wire Line
	8250 4100 8250 4000
Connection ~ 4250 3400
Connection ~ 4650 3500
$Comp
L D_Schottky_Small D1
U 1 1 5DD426D8
P 4450 3100
F 0 "D1" H 4500 3200 50  0000 L CNN
F 1 "1N5817" H 4150 3200 50  0000 L CNN
F 2 "Diodes_ThroughHole:Diode_DO-41_SOD81_Horizontal_RM10" V 4450 3100 50  0001 C CNN
F 3 "" V 4450 3100 50  0000 C CNN
	1    4450 3100
	1    0    0    -1  
$EndComp
Wire Wire Line
	4650 3100 4550 3100
Wire Wire Line
	4350 3100 4250 3100
Text Notes 3500 2900 0    60   ~ 0
Optionnal 1N5817 (only if TP4056 is not used)
$EndSCHEMATC
