(export (version D)
  (design
    (source /home/riton/projects/infrared-thermometer/kicad/mlx90614esf-baa/mlx90614esf-baa.sch)
    (date "lun. 09 déc. 2019 16:30:21 CET")
    (tool "Eeschema 4.0.2+dfsg1-stable")
    (sheet (number 1) (name /) (tstamps /)
      (title_block
        (title)
        (company)
        (rev)
        (date)
        (source mlx90614esf-baa.sch)
        (comment (number 1) (value ""))
        (comment (number 2) (value ""))
        (comment (number 3) (value ""))
        (comment (number 4) (value "")))))
  (components
    (comp (ref P1)
      (value THERMOMETER)
      (footprint Pin_Headers:Pin_Header_Straight_1x06)
      (libsource (lib conn) (part CONN_01X06))
      (sheetpath (names /) (tstamps /))
      (tstamp 5DED0653))
    (comp (ref D1)
      (value LASER)
      (footprint LEDs:LED-3MM)
      (libsource (lib device) (part Led_Small))
      (sheetpath (names /) (tstamps /))
      (tstamp 5DED069B))
    (comp (ref U1)
      (value MLX90614-MODULE)
      (footprint myModules:MLX90614-MODULE)
      (libsource (lib my-misc-modules) (part MLX90614-MODULE))
      (sheetpath (names /) (tstamps /))
      (tstamp 5DED0ACA)))
  (libparts
    (libpart (lib conn) (part CONN_01X06)
      (description "Connector 01x06")
      (footprints
        (fp Pin_Header_Straight_1X06)
        (fp Pin_Header_Angled_1X06)
        (fp Socket_Strip_Straight_1X06)
        (fp Socket_Strip_Angled_1X06))
      (fields
        (field (name Reference) P)
        (field (name Value) CONN_01X06))
      (pins
        (pin (num 1) (name P1) (type passive))
        (pin (num 2) (name P2) (type passive))
        (pin (num 3) (name P3) (type passive))
        (pin (num 4) (name P4) (type passive))
        (pin (num 5) (name P5) (type passive))
        (pin (num 6) (name P6) (type passive))))
    (libpart (lib device) (part Led_Small)
      (description Led)
      (footprints
        (fp CP*)
        (fp SM*))
      (fields
        (field (name Reference) D)
        (field (name Value) Led_Small))
      (pins
        (pin (num 1) (name K) (type passive))
        (pin (num 2) (name A) (type passive))))
    (libpart (lib my-misc-modules) (part MLX90614-MODULE)
      (fields
        (field (name Reference) U)
        (field (name Value) MLX90614-MODULE))
      (pins
        (pin (num 1) (name SDA) (type input))
        (pin (num 2) (name SCL) (type input))
        (pin (num 3) (name GND) (type input))
        (pin (num 4) (name VIN) (type input)))))
  (libraries
    (library (logical device)
      (uri /usr/share/kicad/library/device.lib))
    (library (logical conn)
      (uri /usr/share/kicad/library/conn.lib))
    (library (logical my-misc-modules)
      (uri /mnt/sdc1/riton/kicad/library/my-misc-modules.lib)))
  (nets
    (net (code 1) (name GND)
      (node (ref P1) (pin 3))
      (node (ref U1) (pin 3)))
    (net (code 2) (name "Net-(P1-Pad4)")
      (node (ref P1) (pin 4))
      (node (ref U1) (pin 4)))
    (net (code 3) (name "Net-(D1-Pad1)")
      (node (ref D1) (pin 1))
      (node (ref P1) (pin 1)))
    (net (code 4) (name "Net-(D1-Pad2)")
      (node (ref P1) (pin 2))
      (node (ref D1) (pin 2)))
    (net (code 5) (name "Net-(P1-Pad6)")
      (node (ref U1) (pin 2))
      (node (ref P1) (pin 6)))
    (net (code 6) (name "Net-(P1-Pad5)")
      (node (ref U1) (pin 1))
      (node (ref P1) (pin 5)))))