(kicad_pcb (version 4) (host pcbnew 4.0.2+dfsg1-stable)

  (general
    (links 18)
    (no_connects 6)
    (area 80.89 85.235 209.305 106.385)
    (thickness 1.6)
    (drawings 0)
    (tracks 76)
    (zones 0)
    (modules 10)
    (nets 7)
  )

  (page A4)
  (title_block
    (title MLX90614ESF-BAA)
  )

  (layers
    (0 F.Cu signal)
    (31 B.Cu signal)
    (32 B.Adhes user)
    (33 F.Adhes user)
    (34 B.Paste user)
    (35 F.Paste user)
    (36 B.SilkS user)
    (37 F.SilkS user)
    (38 B.Mask user)
    (39 F.Mask user)
    (40 Dwgs.User user)
    (41 Cmts.User user)
    (42 Eco1.User user)
    (43 Eco2.User user)
    (44 Edge.Cuts user)
    (45 Margin user)
    (46 B.CrtYd user)
    (47 F.CrtYd user)
    (48 B.Fab user)
    (49 F.Fab user)
  )

  (setup
    (last_trace_width 0.5)
    (trace_clearance 0.2)
    (zone_clearance 0.4)
    (zone_45_only no)
    (trace_min 0.2)
    (segment_width 0.2)
    (edge_width 0.15)
    (via_size 1.2)
    (via_drill 0.4)
    (via_min_size 0.4)
    (via_min_drill 0.3)
    (uvia_size 0.3)
    (uvia_drill 0.1)
    (uvias_allowed no)
    (uvia_min_size 0.2)
    (uvia_min_drill 0.1)
    (pcb_text_width 0.3)
    (pcb_text_size 1.5 1.5)
    (mod_edge_width 0.15)
    (mod_text_size 1 1)
    (mod_text_width 0.15)
    (pad_size 8 8)
    (pad_drill 2.49936)
    (pad_to_mask_clearance 0.2)
    (aux_axis_origin 0 0)
    (visible_elements FFFFFF7F)
    (pcbplotparams
      (layerselection 0x00030_80000001)
      (usegerberextensions false)
      (excludeedgelayer true)
      (linewidth 0.100000)
      (plotframeref false)
      (viasonmask false)
      (mode 1)
      (useauxorigin false)
      (hpglpennumber 1)
      (hpglpenspeed 20)
      (hpglpendiameter 15)
      (hpglpenoverlay 2)
      (psnegative false)
      (psa4output false)
      (plotreference true)
      (plotvalue true)
      (plotinvisibletext false)
      (padsonsilk false)
      (subtractmaskfromsilk false)
      (outputformat 1)
      (mirror false)
      (drillshape 1)
      (scaleselection 1)
      (outputdirectory ""))
  )

  (net 0 "")
  (net 1 "Net-(D1-Pad1)")
  (net 2 "Net-(D1-Pad2)")
  (net 3 "Net-(P1-Pad4)")
  (net 4 "Net-(P1-Pad5)")
  (net 5 "Net-(P1-Pad6)")
  (net 6 GND)

  (net_class Default "This is the default net class."
    (clearance 0.2)
    (trace_width 0.5)
    (via_dia 1.2)
    (via_drill 0.4)
    (uvia_dia 0.3)
    (uvia_drill 0.1)
    (add_net GND)
    (add_net "Net-(D1-Pad1)")
    (add_net "Net-(D1-Pad2)")
    (add_net "Net-(P1-Pad4)")
    (add_net "Net-(P1-Pad5)")
    (add_net "Net-(P1-Pad6)")
  )

  (module Wire_Pads:SolderWirePad_single_2-5mmDrill (layer F.Cu) (tedit 5DEE6241) (tstamp 5DEE18AE)
    (at 85.09 95.885)
    (fp_text reference "" (at 0 -5.08) (layer F.SilkS)
      (effects (font (size 1 1) (thickness 0.15)))
    )
    (fp_text value "" (at 1.27 5.08) (layer F.Fab)
      (effects (font (size 1 1) (thickness 0.15)))
    )
    (pad "" thru_hole circle (at 0 0) (size 8 8) (drill 2.49936) (layers *.Cu *.Mask F.SilkS))
  )

  (module LEDs:LED-3MM (layer F.Cu) (tedit 5DEE689F) (tstamp 5DED0A6E)
    (at 104.14 90.17)
    (descr "LED 3mm round vertical")
    (tags "LED  3mm round vertical")
    (path /5DED069B)
    (fp_text reference D1 (at -1.905 0 90) (layer F.SilkS)
      (effects (font (size 1 1) (thickness 0.15)))
    )
    (fp_text value LASER (at 1.27 -3.81) (layer F.Fab)
      (effects (font (size 1 1) (thickness 0.15)))
    )
    (fp_line (start -1.2 2.3) (end 3.8 2.3) (layer F.CrtYd) (width 0.05))
    (fp_line (start 3.8 2.3) (end 3.8 -2.2) (layer F.CrtYd) (width 0.05))
    (fp_line (start 3.8 -2.2) (end -1.2 -2.2) (layer F.CrtYd) (width 0.05))
    (fp_line (start -1.2 -2.2) (end -1.2 2.3) (layer F.CrtYd) (width 0.05))
    (fp_line (start -0.199 1.314) (end -0.199 1.114) (layer F.SilkS) (width 0.15))
    (fp_line (start -0.199 -1.28) (end -0.199 -1.1) (layer F.SilkS) (width 0.15))
    (fp_arc (start 1.301 0.034) (end -0.199 -1.286) (angle 108.5) (layer F.SilkS) (width 0.15))
    (fp_arc (start 1.301 0.034) (end 0.25 -1.1) (angle 85.7) (layer F.SilkS) (width 0.15))
    (fp_arc (start 1.311 0.034) (end 3.051 0.994) (angle 110) (layer F.SilkS) (width 0.15))
    (fp_arc (start 1.301 0.034) (end 2.335 1.094) (angle 87.5) (layer F.SilkS) (width 0.15))
    (fp_text user K (at -1.69 1.74) (layer F.SilkS)
      (effects (font (size 1 1) (thickness 0.15)))
    )
    (pad 1 thru_hole rect (at 0 0 90) (size 2 2) (drill 1.00076) (layers *.Cu *.Mask F.SilkS)
      (net 1 "Net-(D1-Pad1)"))
    (pad 2 thru_hole circle (at 2.54 0) (size 2 2) (drill 1.00076) (layers *.Cu *.Mask F.SilkS)
      (net 2 "Net-(D1-Pad2)"))
    (model LEDs.3dshapes/LED-3MM.wrl
      (at (xyz 0.05 0 0))
      (scale (xyz 1 1 1))
      (rotate (xyz 0 0 90))
    )
  )

  (module Pin_Headers:Pin_Header_Straight_1x06 (layer F.Cu) (tedit 5DEE68A6) (tstamp 5DED0A78)
    (at 100.965 90.17 270)
    (descr "Through hole pin header")
    (tags "pin header")
    (path /5DED0653)
    (fp_text reference P1 (at 2.54 -0.635 360) (layer F.SilkS)
      (effects (font (size 1 1) (thickness 0.15)))
    )
    (fp_text value THERMOMETER (at -3.81 6.35 360) (layer F.Fab)
      (effects (font (size 1 1) (thickness 0.15)))
    )
    (fp_line (start -1.75 -1.75) (end -1.75 14.45) (layer F.CrtYd) (width 0.05))
    (fp_line (start 1.75 -1.75) (end 1.75 14.45) (layer F.CrtYd) (width 0.05))
    (fp_line (start -1.75 -1.75) (end 1.75 -1.75) (layer F.CrtYd) (width 0.05))
    (fp_line (start -1.75 14.45) (end 1.75 14.45) (layer F.CrtYd) (width 0.05))
    (fp_line (start 1.27 1.27) (end 1.27 13.97) (layer F.SilkS) (width 0.15))
    (fp_line (start 1.27 13.97) (end -1.27 13.97) (layer F.SilkS) (width 0.15))
    (fp_line (start -1.27 13.97) (end -1.27 1.27) (layer F.SilkS) (width 0.15))
    (fp_line (start 1.55 -1.55) (end 1.55 0) (layer F.SilkS) (width 0.15))
    (fp_line (start 1.27 1.27) (end -1.27 1.27) (layer F.SilkS) (width 0.15))
    (fp_line (start -1.55 0) (end -1.55 -1.55) (layer F.SilkS) (width 0.15))
    (fp_line (start -1.55 -1.55) (end 1.55 -1.55) (layer F.SilkS) (width 0.15))
    (pad 1 thru_hole rect (at 0 0 270) (size 2.032 1.7272) (drill 1.016) (layers *.Cu *.Mask F.SilkS)
      (net 1 "Net-(D1-Pad1)"))
    (pad 2 thru_hole oval (at 0 2.54 270) (size 2.032 1.7272) (drill 1.016) (layers *.Cu *.Mask F.SilkS)
      (net 2 "Net-(D1-Pad2)"))
    (pad 3 thru_hole oval (at 0 5.08 270) (size 2.032 1.7272) (drill 1.016) (layers *.Cu *.Mask F.SilkS)
      (net 6 GND))
    (pad 4 thru_hole oval (at 0 7.62 270) (size 2.032 1.7272) (drill 1.016) (layers *.Cu *.Mask F.SilkS)
      (net 3 "Net-(P1-Pad4)"))
    (pad 5 thru_hole oval (at 0 10.16 270) (size 2.032 1.7272) (drill 1.016) (layers *.Cu *.Mask F.SilkS)
      (net 4 "Net-(P1-Pad5)"))
    (pad 6 thru_hole oval (at 0 12.7 270) (size 2.032 1.7272) (drill 1.016) (layers *.Cu *.Mask F.SilkS)
      (net 5 "Net-(P1-Pad6)"))
    (model Pin_Headers.3dshapes/Pin_Header_Straight_1x06.wrl
      (at (xyz 0 -0.25 0))
      (scale (xyz 1 1 1))
      (rotate (xyz 0 0 90))
    )
  )

  (module myModules:MLX90614-MODULE (layer B.Cu) (tedit 5DEE68B6) (tstamp 5DED0B6D)
    (at 90.805 102.235)
    (path /5DED0ACA)
    (fp_text reference U1 (at 7.62 -8.89) (layer B.SilkS)
      (effects (font (size 1 1) (thickness 0.15)) (justify mirror))
    )
    (fp_text value MLX90614-MODULE (at 3.81 3.175) (layer B.Fab)
      (effects (font (size 1 1) (thickness 0.15)) (justify mirror))
    )
    (fp_line (start 3.175 -9.525) (end 3.175 -10.16) (layer B.SilkS) (width 0.15))
    (fp_line (start 3.175 -10.16) (end 4.445 -10.16) (layer B.SilkS) (width 0.15))
    (fp_line (start 4.445 -10.16) (end 4.445 -9.525) (layer B.SilkS) (width 0.15))
    (fp_circle (center 3.81 -6.35) (end 3.81 -3.175) (layer B.SilkS) (width 0.15))
    (fp_circle (center 3.81 -6.35) (end 3.81 -4.445) (layer B.SilkS) (width 0.15))
    (fp_circle (center 3.81 -6.35) (end 3.81 -7.62) (layer B.SilkS) (width 0.15))
    (fp_line (start -1.905 1.905) (end 9.525 1.905) (layer B.SilkS) (width 0.15))
    (fp_line (start 9.525 1.905) (end 9.525 -14.605) (layer B.SilkS) (width 0.15))
    (fp_line (start 9.525 -14.605) (end -1.905 -14.605) (layer B.SilkS) (width 0.15))
    (fp_line (start -1.905 -14.605) (end -1.905 1.905) (layer B.SilkS) (width 0.15))
    (pad 1 thru_hole rect (at 0 0) (size 1.72 2) (drill 0.762) (layers *.Cu *.Mask B.SilkS)
      (net 4 "Net-(P1-Pad5)"))
    (pad 2 thru_hole rect (at 2.54 0) (size 1.72 2) (drill 0.762) (layers *.Cu *.Mask B.SilkS)
      (net 5 "Net-(P1-Pad6)"))
    (pad 3 thru_hole rect (at 5.08 0) (size 1.72 2) (drill 0.762) (layers *.Cu *.Mask B.SilkS)
      (net 6 GND))
    (pad 4 thru_hole rect (at 7.62 0) (size 1.7 2) (drill 0.762) (layers *.Cu *.Mask B.SilkS)
      (net 3 "Net-(P1-Pad4)"))
  )

  (module Wire_Pads:SolderWirePad_single_2-5mmDrill (layer F.Cu) (tedit 5DEE623A) (tstamp 5DEE1894)
    (at 104.14 95.885)
    (fp_text reference "" (at 0 -5.08) (layer F.SilkS)
      (effects (font (size 1 1) (thickness 0.15)))
    )
    (fp_text value "" (at 1.27 5.08) (layer F.Fab)
      (effects (font (size 1 1) (thickness 0.15)))
    )
    (pad "" thru_hole circle (at 0 0) (size 8 8) (drill 2.49936) (layers *.Cu *.Mask F.SilkS))
  )

  (module Wire_Pads:SolderWirePad_single_2-5mmDrill (layer F.Cu) (tedit 5DEE6241) (tstamp 5DEE18AE)
    (at 186.055 95.885)
    (fp_text reference "" (at 0 -5.08) (layer F.SilkS)
      (effects (font (size 1 1) (thickness 0.15)))
    )
    (fp_text value "" (at 1.27 5.08) (layer F.Fab)
      (effects (font (size 1 1) (thickness 0.15)))
    )
    (pad "" thru_hole circle (at 0 0) (size 8 8) (drill 2.49936) (layers *.Cu *.Mask F.SilkS))
  )

  (module LEDs:LED-3MM (layer F.Cu) (tedit 5DEE689F) (tstamp 5DED0A6E)
    (at 205.105 90.17)
    (descr "LED 3mm round vertical")
    (tags "LED  3mm round vertical")
    (path /5DED069B)
    (fp_text reference D1 (at -1.905 0 90) (layer F.SilkS)
      (effects (font (size 1 1) (thickness 0.15)))
    )
    (fp_text value LASER (at 1.27 -3.81) (layer F.Fab)
      (effects (font (size 1 1) (thickness 0.15)))
    )
    (fp_line (start -1.2 2.3) (end 3.8 2.3) (layer F.CrtYd) (width 0.05))
    (fp_line (start 3.8 2.3) (end 3.8 -2.2) (layer F.CrtYd) (width 0.05))
    (fp_line (start 3.8 -2.2) (end -1.2 -2.2) (layer F.CrtYd) (width 0.05))
    (fp_line (start -1.2 -2.2) (end -1.2 2.3) (layer F.CrtYd) (width 0.05))
    (fp_line (start -0.199 1.314) (end -0.199 1.114) (layer F.SilkS) (width 0.15))
    (fp_line (start -0.199 -1.28) (end -0.199 -1.1) (layer F.SilkS) (width 0.15))
    (fp_arc (start 1.301 0.034) (end -0.199 -1.286) (angle 108.5) (layer F.SilkS) (width 0.15))
    (fp_arc (start 1.301 0.034) (end 0.25 -1.1) (angle 85.7) (layer F.SilkS) (width 0.15))
    (fp_arc (start 1.311 0.034) (end 3.051 0.994) (angle 110) (layer F.SilkS) (width 0.15))
    (fp_arc (start 1.301 0.034) (end 2.335 1.094) (angle 87.5) (layer F.SilkS) (width 0.15))
    (fp_text user K (at -1.69 1.74) (layer F.SilkS)
      (effects (font (size 1 1) (thickness 0.15)))
    )
    (pad 1 thru_hole rect (at 0 0 90) (size 2 2) (drill 1.00076) (layers *.Cu *.Mask F.SilkS)
      (net 1 "Net-(D1-Pad1)"))
    (pad 2 thru_hole circle (at 2.54 0) (size 2 2) (drill 1.00076) (layers *.Cu *.Mask F.SilkS)
      (net 2 "Net-(D1-Pad2)"))
    (model LEDs.3dshapes/LED-3MM.wrl
      (at (xyz 0.05 0 0))
      (scale (xyz 1 1 1))
      (rotate (xyz 0 0 90))
    )
  )

  (module Pin_Headers:Pin_Header_Straight_1x06 (layer F.Cu) (tedit 5DEE68A6) (tstamp 5DED0A78)
    (at 201.93 90.17 270)
    (descr "Through hole pin header")
    (tags "pin header")
    (path /5DED0653)
    (fp_text reference P1 (at 2.54 -0.635 360) (layer F.SilkS)
      (effects (font (size 1 1) (thickness 0.15)))
    )
    (fp_text value THERMOMETER (at -3.81 6.35 360) (layer F.Fab)
      (effects (font (size 1 1) (thickness 0.15)))
    )
    (fp_line (start -1.75 -1.75) (end -1.75 14.45) (layer F.CrtYd) (width 0.05))
    (fp_line (start 1.75 -1.75) (end 1.75 14.45) (layer F.CrtYd) (width 0.05))
    (fp_line (start -1.75 -1.75) (end 1.75 -1.75) (layer F.CrtYd) (width 0.05))
    (fp_line (start -1.75 14.45) (end 1.75 14.45) (layer F.CrtYd) (width 0.05))
    (fp_line (start 1.27 1.27) (end 1.27 13.97) (layer F.SilkS) (width 0.15))
    (fp_line (start 1.27 13.97) (end -1.27 13.97) (layer F.SilkS) (width 0.15))
    (fp_line (start -1.27 13.97) (end -1.27 1.27) (layer F.SilkS) (width 0.15))
    (fp_line (start 1.55 -1.55) (end 1.55 0) (layer F.SilkS) (width 0.15))
    (fp_line (start 1.27 1.27) (end -1.27 1.27) (layer F.SilkS) (width 0.15))
    (fp_line (start -1.55 0) (end -1.55 -1.55) (layer F.SilkS) (width 0.15))
    (fp_line (start -1.55 -1.55) (end 1.55 -1.55) (layer F.SilkS) (width 0.15))
    (pad 1 thru_hole rect (at 0 0 270) (size 2.032 1.7272) (drill 1.016) (layers *.Cu *.Mask F.SilkS)
      (net 1 "Net-(D1-Pad1)"))
    (pad 2 thru_hole oval (at 0 2.54 270) (size 2.032 1.7272) (drill 1.016) (layers *.Cu *.Mask F.SilkS)
      (net 2 "Net-(D1-Pad2)"))
    (pad 3 thru_hole oval (at 0 5.08 270) (size 2.032 1.7272) (drill 1.016) (layers *.Cu *.Mask F.SilkS)
      (net 6 GND))
    (pad 4 thru_hole oval (at 0 7.62 270) (size 2.032 1.7272) (drill 1.016) (layers *.Cu *.Mask F.SilkS)
      (net 3 "Net-(P1-Pad4)"))
    (pad 5 thru_hole oval (at 0 10.16 270) (size 2.032 1.7272) (drill 1.016) (layers *.Cu *.Mask F.SilkS)
      (net 4 "Net-(P1-Pad5)"))
    (pad 6 thru_hole oval (at 0 12.7 270) (size 2.032 1.7272) (drill 1.016) (layers *.Cu *.Mask F.SilkS)
      (net 5 "Net-(P1-Pad6)"))
    (model Pin_Headers.3dshapes/Pin_Header_Straight_1x06.wrl
      (at (xyz 0 -0.25 0))
      (scale (xyz 1 1 1))
      (rotate (xyz 0 0 90))
    )
  )

  (module myModules:MLX90614-MODULE (layer B.Cu) (tedit 5DEE68B6) (tstamp 5DED0B6D)
    (at 191.77 102.235)
    (path /5DED0ACA)
    (fp_text reference U1 (at 7.62 -8.89) (layer B.SilkS)
      (effects (font (size 1 1) (thickness 0.15)) (justify mirror))
    )
    (fp_text value MLX90614-MODULE (at 3.81 3.175) (layer B.Fab)
      (effects (font (size 1 1) (thickness 0.15)) (justify mirror))
    )
    (fp_line (start 3.175 -9.525) (end 3.175 -10.16) (layer B.SilkS) (width 0.15))
    (fp_line (start 3.175 -10.16) (end 4.445 -10.16) (layer B.SilkS) (width 0.15))
    (fp_line (start 4.445 -10.16) (end 4.445 -9.525) (layer B.SilkS) (width 0.15))
    (fp_circle (center 3.81 -6.35) (end 3.81 -3.175) (layer B.SilkS) (width 0.15))
    (fp_circle (center 3.81 -6.35) (end 3.81 -4.445) (layer B.SilkS) (width 0.15))
    (fp_circle (center 3.81 -6.35) (end 3.81 -7.62) (layer B.SilkS) (width 0.15))
    (fp_line (start -1.905 1.905) (end 9.525 1.905) (layer B.SilkS) (width 0.15))
    (fp_line (start 9.525 1.905) (end 9.525 -14.605) (layer B.SilkS) (width 0.15))
    (fp_line (start 9.525 -14.605) (end -1.905 -14.605) (layer B.SilkS) (width 0.15))
    (fp_line (start -1.905 -14.605) (end -1.905 1.905) (layer B.SilkS) (width 0.15))
    (pad 1 thru_hole rect (at 0 0) (size 1.72 2) (drill 0.762) (layers *.Cu *.Mask B.SilkS)
      (net 4 "Net-(P1-Pad5)"))
    (pad 2 thru_hole rect (at 2.54 0) (size 1.72 2) (drill 0.762) (layers *.Cu *.Mask B.SilkS)
      (net 5 "Net-(P1-Pad6)"))
    (pad 3 thru_hole rect (at 5.08 0) (size 1.72 2) (drill 0.762) (layers *.Cu *.Mask B.SilkS)
      (net 6 GND))
    (pad 4 thru_hole rect (at 7.62 0) (size 1.7 2) (drill 0.762) (layers *.Cu *.Mask B.SilkS)
      (net 3 "Net-(P1-Pad4)"))
  )

  (module Wire_Pads:SolderWirePad_single_2-5mmDrill (layer F.Cu) (tedit 5DEE623A) (tstamp 5DEE1894)
    (at 205.105 95.885)
    (fp_text reference "" (at 0 -5.08) (layer F.SilkS)
      (effects (font (size 1 1) (thickness 0.15)))
    )
    (fp_text value "" (at 1.27 5.08) (layer F.Fab)
      (effects (font (size 1 1) (thickness 0.15)))
    )
    (pad "" thru_hole circle (at 0 0) (size 8 8) (drill 2.49936) (layers *.Cu *.Mask F.SilkS))
  )

  (segment (start 100.965 90.17) (end 104.14 90.17) (width 0.5) (layer B.Cu) (net 1))
  (segment (start 201.93 90.17) (end 205.105 90.17) (width 0.5) (layer B.Cu) (net 1))
  (segment (start 98.425 90.17) (end 98.425 88.9) (width 0.5) (layer B.Cu) (net 2))
  (segment (start 106.68 88.9) (end 106.68 90.17) (width 0.5) (layer B.Cu) (net 2) (tstamp 5DEE6239))
  (segment (start 106.045 88.265) (end 106.68 88.9) (width 0.5) (layer B.Cu) (net 2) (tstamp 5DEE6238))
  (segment (start 99.06 88.265) (end 106.045 88.265) (width 0.5) (layer B.Cu) (net 2) (tstamp 5DEE6237))
  (segment (start 98.425 88.9) (end 99.06 88.265) (width 0.5) (layer B.Cu) (net 2) (tstamp 5DEE6236))
  (segment (start 199.39 90.17) (end 199.39 88.9) (width 0.5) (layer B.Cu) (net 2))
  (segment (start 207.645 88.9) (end 207.645 90.17) (width 0.5) (layer B.Cu) (net 2) (tstamp 5DEE6239))
  (segment (start 207.01 88.265) (end 207.645 88.9) (width 0.5) (layer B.Cu) (net 2) (tstamp 5DEE6238))
  (segment (start 200.025 88.265) (end 207.01 88.265) (width 0.5) (layer B.Cu) (net 2) (tstamp 5DEE6237))
  (segment (start 199.39 88.9) (end 200.025 88.265) (width 0.5) (layer B.Cu) (net 2) (tstamp 5DEE6236))
  (segment (start 98.425 102.235) (end 98.425 99.06) (width 0.5) (layer B.Cu) (net 3))
  (segment (start 98.425 99.06) (end 97.155 97.79) (width 0.5) (layer B.Cu) (net 3) (tstamp 5DEE29A5))
  (via (at 94.615 97.79) (size 1.2) (drill 0.4) (layers F.Cu B.Cu) (net 3))
  (segment (start 94.615 92.71) (end 94.615 97.79) (width 0.5) (layer B.Cu) (net 3) (tstamp 5DEE2945))
  (segment (start 93.345 91.44) (end 94.615 92.71) (width 0.5) (layer B.Cu) (net 3) (tstamp 5DEE2943))
  (segment (start 93.345 90.17) (end 93.345 91.44) (width 0.5) (layer B.Cu) (net 3))
  (via (at 97.155 97.79) (size 1.2) (drill 0.4) (layers F.Cu B.Cu) (net 3))
  (segment (start 97.155 97.79) (end 94.615 97.79) (width 0.5) (layer F.Cu) (net 3) (tstamp 5DEE298D))
  (segment (start 98.425 102.235) (end 98.425 102.235) (width 0.5) (layer B.Cu) (net 3) (tstamp 5DEE193B))
  (segment (start 199.39 102.235) (end 199.39 99.06) (width 0.5) (layer B.Cu) (net 3))
  (segment (start 199.39 99.06) (end 198.12 97.79) (width 0.5) (layer B.Cu) (net 3) (tstamp 5DEE29A5))
  (via (at 195.58 97.79) (size 1.2) (drill 0.4) (layers F.Cu B.Cu) (net 3))
  (segment (start 195.58 92.71) (end 195.58 97.79) (width 0.5) (layer B.Cu) (net 3) (tstamp 5DEE2945))
  (segment (start 194.31 91.44) (end 195.58 92.71) (width 0.5) (layer B.Cu) (net 3) (tstamp 5DEE2943))
  (segment (start 194.31 90.17) (end 194.31 91.44) (width 0.5) (layer B.Cu) (net 3))
  (via (at 198.12 97.79) (size 1.2) (drill 0.4) (layers F.Cu B.Cu) (net 3))
  (segment (start 198.12 97.79) (end 195.58 97.79) (width 0.5) (layer F.Cu) (net 3) (tstamp 5DEE298D))
  (segment (start 199.39 102.235) (end 199.39 102.235) (width 0.5) (layer B.Cu) (net 3) (tstamp 5DEE193B))
  (segment (start 90.805 90.17) (end 90.805 90.805) (width 0.5) (layer B.Cu) (net 4))
  (segment (start 90.805 90.805) (end 93.345 93.345) (width 0.5) (layer B.Cu) (net 4) (tstamp 5DEE2957))
  (segment (start 93.345 98.425) (end 90.805 100.965) (width 0.5) (layer B.Cu) (net 4) (tstamp 5DEE295A))
  (segment (start 93.345 93.345) (end 93.345 98.425) (width 0.5) (layer B.Cu) (net 4) (tstamp 5DEE2958))
  (segment (start 90.805 100.965) (end 90.805 102.235) (width 0.5) (layer B.Cu) (net 4) (tstamp 5DEE2965))
  (segment (start 191.77 90.17) (end 191.77 90.805) (width 0.5) (layer B.Cu) (net 4))
  (segment (start 191.77 90.805) (end 194.31 93.345) (width 0.5) (layer B.Cu) (net 4) (tstamp 5DEE2957))
  (segment (start 194.31 98.425) (end 191.77 100.965) (width 0.5) (layer B.Cu) (net 4) (tstamp 5DEE295A))
  (segment (start 194.31 93.345) (end 194.31 98.425) (width 0.5) (layer B.Cu) (net 4) (tstamp 5DEE2958))
  (segment (start 191.77 100.965) (end 191.77 102.235) (width 0.5) (layer B.Cu) (net 4) (tstamp 5DEE2965))
  (segment (start 93.345 102.235) (end 93.345 100.33) (width 0.5) (layer B.Cu) (net 5))
  (segment (start 90.17 99.695) (end 92.075 97.79) (width 0.5) (layer B.Cu) (net 5) (tstamp 5DEE29B2))
  (via (at 90.17 99.695) (size 1.2) (drill 0.4) (layers F.Cu B.Cu) (net 5))
  (segment (start 93.98 99.695) (end 90.17 99.695) (width 0.5) (layer F.Cu) (net 5) (tstamp 5DEE29AE))
  (via (at 93.98 99.695) (size 1.2) (drill 0.4) (layers F.Cu B.Cu) (net 5))
  (segment (start 93.345 100.33) (end 93.98 99.695) (width 0.5) (layer B.Cu) (net 5) (tstamp 5DEE29A9))
  (segment (start 88.265 90.17) (end 88.265 90.805) (width 0.5) (layer B.Cu) (net 5))
  (segment (start 88.265 90.805) (end 90.17 92.71) (width 0.5) (layer B.Cu) (net 5) (tstamp 5DEE2968))
  (segment (start 92.075 93.98) (end 92.075 97.79) (width 0.5) (layer B.Cu) (net 5) (tstamp 5DEE296D))
  (segment (start 90.805 92.71) (end 92.075 93.98) (width 0.5) (layer B.Cu) (net 5) (tstamp 5DEE296C))
  (segment (start 90.17 92.71) (end 90.805 92.71) (width 0.5) (layer B.Cu) (net 5) (tstamp 5DEE2969))
  (segment (start 194.31 102.235) (end 194.31 100.33) (width 0.5) (layer B.Cu) (net 5))
  (segment (start 191.135 99.695) (end 193.04 97.79) (width 0.5) (layer B.Cu) (net 5) (tstamp 5DEE29B2))
  (via (at 191.135 99.695) (size 1.2) (drill 0.4) (layers F.Cu B.Cu) (net 5))
  (segment (start 194.945 99.695) (end 191.135 99.695) (width 0.5) (layer F.Cu) (net 5) (tstamp 5DEE29AE))
  (via (at 194.945 99.695) (size 1.2) (drill 0.4) (layers F.Cu B.Cu) (net 5))
  (segment (start 194.31 100.33) (end 194.945 99.695) (width 0.5) (layer B.Cu) (net 5) (tstamp 5DEE29A9))
  (segment (start 189.23 90.17) (end 189.23 90.805) (width 0.5) (layer B.Cu) (net 5))
  (segment (start 189.23 90.805) (end 191.135 92.71) (width 0.5) (layer B.Cu) (net 5) (tstamp 5DEE2968))
  (segment (start 193.04 93.98) (end 193.04 97.79) (width 0.5) (layer B.Cu) (net 5) (tstamp 5DEE296D))
  (segment (start 191.77 92.71) (end 193.04 93.98) (width 0.5) (layer B.Cu) (net 5) (tstamp 5DEE296C))
  (segment (start 191.135 92.71) (end 191.77 92.71) (width 0.5) (layer B.Cu) (net 5) (tstamp 5DEE2969))
  (segment (start 95.885 87.884) (end 98.298 87.884) (width 0.5) (layer B.Cu) (net 6))
  (segment (start 95.885 90.17) (end 95.885 87.884) (width 0.5) (layer B.Cu) (net 6))
  (segment (start 95.885 87.884) (end 93.472 87.884) (width 0.5) (layer B.Cu) (net 6) (tstamp 5DEE29F0))
  (segment (start 95.885 103.886) (end 92.71 103.886) (width 0.5) (layer B.Cu) (net 6))
  (segment (start 95.885 102.235) (end 95.885 103.886) (width 0.5) (layer B.Cu) (net 6))
  (segment (start 95.885 103.886) (end 98.425 103.886) (width 0.5) (layer B.Cu) (net 6) (tstamp 5DEE29C8))
  (segment (start 95.885 90.17) (end 95.885 102.235) (width 0.5) (layer B.Cu) (net 6))
  (segment (start 196.85 87.884) (end 199.263 87.884) (width 0.5) (layer B.Cu) (net 6))
  (segment (start 196.85 90.17) (end 196.85 87.884) (width 0.5) (layer B.Cu) (net 6))
  (segment (start 196.85 87.884) (end 194.437 87.884) (width 0.5) (layer B.Cu) (net 6) (tstamp 5DEE29F0))
  (segment (start 196.85 103.886) (end 193.675 103.886) (width 0.5) (layer B.Cu) (net 6))
  (segment (start 196.85 102.235) (end 196.85 103.886) (width 0.5) (layer B.Cu) (net 6))
  (segment (start 196.85 103.886) (end 199.39 103.886) (width 0.5) (layer B.Cu) (net 6) (tstamp 5DEE29C8))
  (segment (start 196.85 90.17) (end 196.85 102.235) (width 0.5) (layer B.Cu) (net 6))

  (zone (net 6) (net_name GND) (layer B.Cu) (tstamp 5DED0CB8) (hatch edge 0.508)
    (connect_pads (clearance 0.4))
    (min_thickness 0.254)
    (fill yes (arc_segments 16) (thermal_gap 2) (thermal_bridge_width 1))
    (polygon
      (pts
        (xy 81.28 104.14) (xy 81.28 87.63) (xy 107.95 87.63) (xy 107.95 104.14)
      )
    )
    (filled_polygon
      (pts
        (xy 96.258 89.797) (xy 96.278 89.797) (xy 96.278 90.543) (xy 96.258 90.543) (xy 96.258 92.752794)
        (xy 96.717588 93.194766) (xy 97.456261 92.860362) (xy 98.307892 92.065876) (xy 98.457825 91.7367) (xy 98.95716 91.637376)
        (xy 99.408303 91.335932) (xy 99.564076 91.102801) (xy 99.564076 91.186) (xy 99.600823 91.381294) (xy 99.716242 91.56066)
        (xy 99.892351 91.68099) (xy 100.1014 91.723324) (xy 101.8286 91.723324) (xy 102.023894 91.686577) (xy 102.20326 91.571158)
        (xy 102.32359 91.395049) (xy 102.365924 91.186) (xy 102.365924 90.947) (xy 102.602676 90.947) (xy 102.602676 91.17)
        (xy 102.639423 91.365294) (xy 102.754842 91.54466) (xy 102.768025 91.553668) (xy 101.579011 92.044959) (xy 100.304434 93.317312)
        (xy 99.613788 94.980574) (xy 99.612216 96.781525) (xy 100.299959 98.445989) (xy 101.572312 99.720566) (xy 103.235574 100.411212)
        (xy 105.036525 100.412784) (xy 106.700989 99.725041) (xy 107.823 98.604988) (xy 107.823 104.013) (xy 98.72499 104.013)
        (xy 98.824681 103.772324) (xy 99.275 103.772324) (xy 99.470294 103.735577) (xy 99.64966 103.620158) (xy 99.76999 103.444049)
        (xy 99.812324 103.235) (xy 99.812324 101.235) (xy 99.775577 101.039706) (xy 99.660158 100.86034) (xy 99.484049 100.74001)
        (xy 99.275 100.697676) (xy 99.202 100.697676) (xy 99.202 99.06) (xy 99.142854 98.762655) (xy 98.974422 98.510578)
        (xy 98.281976 97.818132) (xy 98.282195 97.566809) (xy 98.110981 97.15244) (xy 97.794228 96.835133) (xy 97.380158 96.663196)
        (xy 96.931809 96.662805) (xy 96.51744 96.834019) (xy 96.200133 97.150772) (xy 96.028196 97.564842) (xy 96.027805 98.013191)
        (xy 96.199019 98.42756) (xy 96.515772 98.744867) (xy 96.929842 98.916804) (xy 97.183181 98.917025) (xy 97.519869 99.253713)
        (xy 97.168087 99.108) (xy 96.78975 99.108) (xy 96.258 99.63975) (xy 96.258 101.862) (xy 96.278 101.862)
        (xy 96.278 102.608) (xy 96.258 102.608) (xy 96.258 102.628) (xy 95.512 102.628) (xy 95.512 102.608)
        (xy 95.492 102.608) (xy 95.492 101.862) (xy 95.512 101.862) (xy 95.512 99.63975) (xy 94.98025 99.108)
        (xy 94.956872 99.108) (xy 94.935981 99.05744) (xy 94.795944 98.917158) (xy 94.838191 98.917195) (xy 95.25256 98.745981)
        (xy 95.569867 98.429228) (xy 95.741804 98.015158) (xy 95.742195 97.566809) (xy 95.570981 97.15244) (xy 95.392 96.973146)
        (xy 95.392 92.868194) (xy 95.512 92.752794) (xy 95.512 90.543) (xy 95.492 90.543) (xy 95.492 89.797)
        (xy 95.512 89.797) (xy 95.512 89.777) (xy 96.258 89.777)
      )
    )
    (filled_polygon
      (pts
        (xy 93.462108 88.274124) (xy 93.312175 88.6033) (xy 92.81284 88.702624) (xy 92.361697 89.004068) (xy 92.075 89.433141)
        (xy 91.788303 89.004068) (xy 91.33716 88.702624) (xy 90.805 88.596771) (xy 90.27284 88.702624) (xy 89.821697 89.004068)
        (xy 89.535 89.433141) (xy 89.248303 89.004068) (xy 88.79716 88.702624) (xy 88.265 88.596771) (xy 87.73284 88.702624)
        (xy 87.281697 89.004068) (xy 86.980253 89.455211) (xy 86.8744 89.987371) (xy 86.8744 90.352629) (xy 86.980253 90.884789)
        (xy 87.281697 91.335932) (xy 87.73284 91.637376) (xy 88.064504 91.703348) (xy 89.620578 93.259422) (xy 89.872655 93.427854)
        (xy 90.17 93.487) (xy 90.483156 93.487) (xy 91.298 94.301844) (xy 91.298 97.468156) (xy 90.198132 98.568024)
        (xy 89.946809 98.567805) (xy 89.53244 98.739019) (xy 89.215133 99.055772) (xy 89.043196 99.469842) (xy 89.042805 99.918191)
        (xy 89.214019 100.33256) (xy 89.530772 100.649867) (xy 89.743705 100.738285) (xy 89.57034 100.849842) (xy 89.45001 101.025951)
        (xy 89.407676 101.235) (xy 89.407676 103.235) (xy 89.444423 103.430294) (xy 89.559842 103.60966) (xy 89.735951 103.72999)
        (xy 89.945 103.772324) (xy 91.665 103.772324) (xy 91.860294 103.735577) (xy 92.03966 103.620158) (xy 92.074132 103.569706)
        (xy 92.099842 103.60966) (xy 92.275951 103.72999) (xy 92.485 103.772324) (xy 92.945319 103.772324) (xy 93.04501 104.013)
        (xy 81.407 104.013) (xy 81.407 98.603304) (xy 82.522312 99.720566) (xy 84.185574 100.411212) (xy 85.986525 100.412784)
        (xy 87.650989 99.725041) (xy 88.925566 98.452688) (xy 89.616212 96.789426) (xy 89.617784 94.988475) (xy 88.930041 93.324011)
        (xy 87.657688 92.049434) (xy 85.994426 91.358788) (xy 84.193475 91.357216) (xy 82.529011 92.044959) (xy 81.407 93.165012)
        (xy 81.407 87.757) (xy 94.016427 87.757)
      )
    )
    (filled_polygon
      (pts
        (xy 98.123785 88.102371) (xy 97.753573 87.757) (xy 98.469156 87.757)
      )
    )
  )
  (zone (net 6) (net_name GND) (layer B.Cu) (tstamp 5DED0CB8) (hatch edge 0.508)
    (connect_pads (clearance 0.4))
    (min_thickness 0.254)
    (fill yes (arc_segments 16) (thermal_gap 2) (thermal_bridge_width 1))
    (polygon
      (pts
        (xy 182.245 104.14) (xy 182.245 87.63) (xy 208.915 87.63) (xy 208.915 104.14)
      )
    )
    (filled_polygon
      (pts
        (xy 197.223 89.797) (xy 197.243 89.797) (xy 197.243 90.543) (xy 197.223 90.543) (xy 197.223 92.752794)
        (xy 197.682588 93.194766) (xy 198.421261 92.860362) (xy 199.272892 92.065876) (xy 199.422825 91.7367) (xy 199.92216 91.637376)
        (xy 200.373303 91.335932) (xy 200.529076 91.102801) (xy 200.529076 91.186) (xy 200.565823 91.381294) (xy 200.681242 91.56066)
        (xy 200.857351 91.68099) (xy 201.0664 91.723324) (xy 202.7936 91.723324) (xy 202.988894 91.686577) (xy 203.16826 91.571158)
        (xy 203.28859 91.395049) (xy 203.330924 91.186) (xy 203.330924 90.947) (xy 203.567676 90.947) (xy 203.567676 91.17)
        (xy 203.604423 91.365294) (xy 203.719842 91.54466) (xy 203.733025 91.553668) (xy 202.544011 92.044959) (xy 201.269434 93.317312)
        (xy 200.578788 94.980574) (xy 200.577216 96.781525) (xy 201.264959 98.445989) (xy 202.537312 99.720566) (xy 204.200574 100.411212)
        (xy 206.001525 100.412784) (xy 207.665989 99.725041) (xy 208.788 98.604988) (xy 208.788 104.013) (xy 199.68999 104.013)
        (xy 199.789681 103.772324) (xy 200.24 103.772324) (xy 200.435294 103.735577) (xy 200.61466 103.620158) (xy 200.73499 103.444049)
        (xy 200.777324 103.235) (xy 200.777324 101.235) (xy 200.740577 101.039706) (xy 200.625158 100.86034) (xy 200.449049 100.74001)
        (xy 200.24 100.697676) (xy 200.167 100.697676) (xy 200.167 99.06) (xy 200.107854 98.762655) (xy 199.939422 98.510578)
        (xy 199.246976 97.818132) (xy 199.247195 97.566809) (xy 199.075981 97.15244) (xy 198.759228 96.835133) (xy 198.345158 96.663196)
        (xy 197.896809 96.662805) (xy 197.48244 96.834019) (xy 197.165133 97.150772) (xy 196.993196 97.564842) (xy 196.992805 98.013191)
        (xy 197.164019 98.42756) (xy 197.480772 98.744867) (xy 197.894842 98.916804) (xy 198.148181 98.917025) (xy 198.484869 99.253713)
        (xy 198.133087 99.108) (xy 197.75475 99.108) (xy 197.223 99.63975) (xy 197.223 101.862) (xy 197.243 101.862)
        (xy 197.243 102.608) (xy 197.223 102.608) (xy 197.223 102.628) (xy 196.477 102.628) (xy 196.477 102.608)
        (xy 196.457 102.608) (xy 196.457 101.862) (xy 196.477 101.862) (xy 196.477 99.63975) (xy 195.94525 99.108)
        (xy 195.921872 99.108) (xy 195.900981 99.05744) (xy 195.760944 98.917158) (xy 195.803191 98.917195) (xy 196.21756 98.745981)
        (xy 196.534867 98.429228) (xy 196.706804 98.015158) (xy 196.707195 97.566809) (xy 196.535981 97.15244) (xy 196.357 96.973146)
        (xy 196.357 92.868194) (xy 196.477 92.752794) (xy 196.477 90.543) (xy 196.457 90.543) (xy 196.457 89.797)
        (xy 196.477 89.797) (xy 196.477 89.777) (xy 197.223 89.777)
      )
    )
    (filled_polygon
      (pts
        (xy 194.427108 88.274124) (xy 194.277175 88.6033) (xy 193.77784 88.702624) (xy 193.326697 89.004068) (xy 193.04 89.433141)
        (xy 192.753303 89.004068) (xy 192.30216 88.702624) (xy 191.77 88.596771) (xy 191.23784 88.702624) (xy 190.786697 89.004068)
        (xy 190.5 89.433141) (xy 190.213303 89.004068) (xy 189.76216 88.702624) (xy 189.23 88.596771) (xy 188.69784 88.702624)
        (xy 188.246697 89.004068) (xy 187.945253 89.455211) (xy 187.8394 89.987371) (xy 187.8394 90.352629) (xy 187.945253 90.884789)
        (xy 188.246697 91.335932) (xy 188.69784 91.637376) (xy 189.029504 91.703348) (xy 190.585578 93.259422) (xy 190.837655 93.427854)
        (xy 191.135 93.487) (xy 191.448156 93.487) (xy 192.263 94.301844) (xy 192.263 97.468156) (xy 191.163132 98.568024)
        (xy 190.911809 98.567805) (xy 190.49744 98.739019) (xy 190.180133 99.055772) (xy 190.008196 99.469842) (xy 190.007805 99.918191)
        (xy 190.179019 100.33256) (xy 190.495772 100.649867) (xy 190.708705 100.738285) (xy 190.53534 100.849842) (xy 190.41501 101.025951)
        (xy 190.372676 101.235) (xy 190.372676 103.235) (xy 190.409423 103.430294) (xy 190.524842 103.60966) (xy 190.700951 103.72999)
        (xy 190.91 103.772324) (xy 192.63 103.772324) (xy 192.825294 103.735577) (xy 193.00466 103.620158) (xy 193.039132 103.569706)
        (xy 193.064842 103.60966) (xy 193.240951 103.72999) (xy 193.45 103.772324) (xy 193.910319 103.772324) (xy 194.01001 104.013)
        (xy 182.372 104.013) (xy 182.372 98.603304) (xy 183.487312 99.720566) (xy 185.150574 100.411212) (xy 186.951525 100.412784)
        (xy 188.615989 99.725041) (xy 189.890566 98.452688) (xy 190.581212 96.789426) (xy 190.582784 94.988475) (xy 189.895041 93.324011)
        (xy 188.622688 92.049434) (xy 186.959426 91.358788) (xy 185.158475 91.357216) (xy 183.494011 92.044959) (xy 182.372 93.165012)
        (xy 182.372 87.757) (xy 194.981427 87.757)
      )
    )
    (filled_polygon
      (pts
        (xy 199.088785 88.102371) (xy 198.718573 87.757) (xy 199.434156 87.757)
      )
    )
  )
)
