EESchema Schematic File Version 2
LIBS:power
LIBS:device
LIBS:transistors
LIBS:conn
LIBS:linear
LIBS:regul
LIBS:74xx
LIBS:cmos4000
LIBS:adc-dac
LIBS:memory
LIBS:xilinx
LIBS:microcontrollers
LIBS:dsp
LIBS:microchip
LIBS:analog_switches
LIBS:motorola
LIBS:texas
LIBS:intel
LIBS:audio
LIBS:interface
LIBS:digital-audio
LIBS:philips
LIBS:display
LIBS:cypress
LIBS:siliconi
LIBS:opto
LIBS:atmel
LIBS:contrib
LIBS:valves
LIBS:my-displays
LIBS:my-microcontrollers
LIBS:my-batteries
LIBS:my-switches
LIBS:infrared-thermometer-cache
EELAYER 25 0
EELAYER END
$Descr A4 11693 8268
encoding utf-8
Sheet 1 1
Title ""
Date ""
Rev ""
Comp ""
Comment1 ""
Comment2 ""
Comment3 ""
Comment4 ""
$EndDescr
$Comp
L arduino_nano U2
U 1 1 5DA059D5
P 4900 3350
F 0 "U2" H 5200 2300 70  0000 C CNN
F 1 "arduino_nano" H 5200 2550 70  0000 C CNN
F 2 "myMicroControllers:Arduino-nano" H 5200 3300 60  0001 C CNN
F 3 "" H 4900 3350 60  0000 C CNN
	1    4900 3350
	1    0    0    -1  
$EndComp
$Comp
L +5V #PWR01
U 1 1 5DA05A53
P 3800 3500
F 0 "#PWR01" H 3800 3350 50  0001 C CNN
F 1 "+5V" H 3800 3640 50  0000 C CNN
F 2 "" H 3800 3500 50  0000 C CNN
F 3 "" H 3800 3500 50  0000 C CNN
	1    3800 3500
	1    0    0    -1  
$EndComp
$Comp
L GND #PWR02
U 1 1 5DA05A87
P 4100 4700
F 0 "#PWR02" H 4100 4450 50  0001 C CNN
F 1 "GND" H 4100 4550 50  0000 C CNN
F 2 "" H 4100 4700 50  0000 C CNN
F 3 "" H 4100 4700 50  0000 C CNN
	1    4100 4700
	1    0    0    -1  
$EndComp
$Comp
L GND #PWR03
U 1 1 5DA05DA3
P 3600 4200
F 0 "#PWR03" H 3600 3950 50  0001 C CNN
F 1 "GND" H 3600 4050 50  0000 C CNN
F 2 "" H 3600 4200 50  0000 C CNN
F 3 "" H 3600 4200 50  0000 C CNN
	1    3600 4200
	1    0    0    -1  
$EndComp
$Comp
L SSD1306-I2C U1
U 1 1 5DA05DD2
P 3000 2500
F 0 "U1" H 3125 2500 60  0000 C CNN
F 1 "SSD1306-I2C" H 3125 2650 60  0000 C CNN
F 2 "myDisplays:SSD1306-128x64-I2C" H 3025 2500 60  0001 C CNN
F 3 "" H 3025 2500 60  0000 C CNN
	1    3000 2500
	-1   0    0    1   
$EndComp
$Comp
L GND #PWR04
U 1 1 5DA05EB0
P 3800 3000
F 0 "#PWR04" H 3800 2750 50  0001 C CNN
F 1 "GND" H 3800 2850 50  0000 C CNN
F 2 "" H 3800 3000 50  0000 C CNN
F 3 "" H 3800 3000 50  0000 C CNN
	1    3800 3000
	1    0    0    -1  
$EndComp
$Comp
L GND #PWR05
U 1 1 5DA05F8C
P 7050 5300
F 0 "#PWR05" H 7050 5050 50  0001 C CNN
F 1 "GND" H 7050 5150 50  0000 C CNN
F 2 "" H 7050 5300 50  0000 C CNN
F 3 "" H 7050 5300 50  0000 C CNN
	1    7050 5300
	1    0    0    -1  
$EndComp
$Comp
L SW_PUSH SW1
U 1 1 5DA06038
P 7600 3300
F 0 "SW1" H 7850 3400 50  0000 C CNN
F 1 "SHOOT" H 7600 3220 50  0000 C CNN
F 2 "mySwitches:SW_PUSH-12mm" H 7600 3300 50  0001 C CNN
F 3 "" H 7600 3300 50  0000 C CNN
	1    7600 3300
	0    1    1    0   
$EndComp
$Comp
L CONN_01X06 P1
U 1 1 5DA19DFB
P 2800 3750
F 0 "P1" H 2800 4100 50  0000 C CNN
F 1 "MLX90614+LED" V 2900 3750 50  0000 C CNN
F 2 "Pin_Headers:Pin_Header_Angled_1x06" H 2800 3750 50  0001 C CNN
F 3 "" H 2800 3750 50  0000 C CNN
	1    2800 3750
	-1   0    0    -1  
$EndComp
$Comp
L SW_PUSH SW2
U 1 1 5DA1D847
P 6600 4600
F 0 "SW2" H 6850 4700 50  0000 C CNN
F 1 "PLUS" H 6600 4520 50  0000 C CNN
F 2 "mySwitches:SW_Tactile_SPST_Angled_KSA0V211_LFTR" H 6600 4600 50  0001 C CNN
F 3 "" H 6600 4600 50  0000 C CNN
	1    6600 4600
	0    1    1    0   
$EndComp
$Comp
L SW_PUSH SW3
U 1 1 5DA1D8D5
P 6900 4600
F 0 "SW3" H 7150 4700 50  0000 C CNN
F 1 "MINUS" H 6900 4520 50  0000 C CNN
F 2 "mySwitches:SW_Tactile_SPST_Angled_KSA0V211_LFTR" H 6900 4600 50  0001 C CNN
F 3 "" H 6900 4600 50  0000 C CNN
	1    6900 4600
	0    1    1    0   
$EndComp
$Comp
L GND #PWR06
U 1 1 5DA1DD00
P 7600 3700
F 0 "#PWR06" H 7600 3450 50  0001 C CNN
F 1 "GND" H 7600 3550 50  0000 C CNN
F 2 "" H 7600 3700 50  0000 C CNN
F 3 "" H 7600 3700 50  0000 C CNN
	1    7600 3700
	1    0    0    -1  
$EndComp
$Comp
L R R3
U 1 1 5DA1DDA0
P 7600 2650
F 0 "R3" V 7680 2650 50  0000 C CNN
F 1 "100" V 7600 2650 50  0000 C CNN
F 2 "Resistors_ThroughHole:Resistor_Horizontal_RM10mm" V 7530 2650 50  0001 C CNN
F 3 "" H 7600 2650 50  0000 C CNN
	1    7600 2650
	-1   0    0    1   
$EndComp
$Comp
L JUMPER3 JP1
U 1 1 5DA492CB
P 7200 4600
F 0 "JP1" H 7250 4500 50  0000 L CNN
F 1 "MODE" H 7200 4700 50  0000 C BNN
F 2 "Pin_Headers:Pin_Header_Angled_1x03" H 7200 4600 50  0001 C CNN
F 3 "" H 7200 4600 50  0000 C CNN
	1    7200 4600
	0    -1   -1   0   
$EndComp
$Comp
L SWITCH-SPDT SW5
U 1 1 5DD2A8C5
P 7650 4550
F 0 "SW5" H 7700 4700 50  0000 C CNN
F 1 "MODE" H 7700 4400 50  0000 C CNN
F 2 "mySwitches:SW_CuK_OS102011MA1QN1_SPDT_Angled" H 7650 4550 50  0001 C CNN
F 3 "" H 7650 4550 50  0000 C CNN
	1    7650 4550
	0    1    1    0   
$EndComp
$Comp
L C C1
U 1 1 5DD39F06
P 3800 4800
F 0 "C1" H 3825 4900 50  0000 L CNN
F 1 "100nF" H 3550 4700 50  0000 L CNN
F 2 "Capacitors_ThroughHole:C_Rect_L7_W2.5_P5" H 3838 4650 50  0001 C CNN
F 3 "" H 3800 4800 50  0000 C CNN
	1    3800 4800
	1    0    0    -1  
$EndComp
$Comp
L GND #PWR07
U 1 1 5DD39F45
P 3800 5050
F 0 "#PWR07" H 3800 4800 50  0001 C CNN
F 1 "GND" H 3800 4900 50  0000 C CNN
F 2 "" H 3800 5050 50  0000 C CNN
F 3 "" H 3800 5050 50  0000 C CNN
	1    3800 5050
	1    0    0    -1  
$EndComp
$Comp
L CONN_01X03 P2
U 1 1 5DD3A36E
P 2800 4450
F 0 "P2" H 2800 4650 50  0000 C CNN
F 1 "BATT" V 2900 4450 50  0000 C CNN
F 2 "Pin_Headers:Pin_Header_Straight_1x03" H 2800 4450 50  0001 C CNN
F 3 "" H 2800 4450 50  0000 C CNN
	1    2800 4450
	-1   0    0    1   
$EndComp
$Comp
L R R2
U 1 1 5DD3A727
P 3200 5200
F 0 "R2" V 3100 5200 50  0000 C CNN
F 1 "330K" V 3200 5200 50  0000 C CNN
F 2 "Resistors_ThroughHole:Resistor_Horizontal_RM10mm" V 3130 5200 50  0001 C CNN
F 3 "" H 3200 5200 50  0000 C CNN
	1    3200 5200
	-1   0    0    1   
$EndComp
$Comp
L R R1
U 1 1 5DD3A876
P 3200 4800
F 0 "R1" V 3280 4800 50  0000 C CNN
F 1 "1M" V 3200 4800 50  0000 C CNN
F 2 "Resistors_ThroughHole:Resistor_Horizontal_RM10mm" V 3130 4800 50  0001 C CNN
F 3 "" H 3200 4800 50  0000 C CNN
	1    3200 4800
	-1   0    0    1   
$EndComp
$Comp
L GND #PWR08
U 1 1 5DD3A932
P 3200 5450
F 0 "#PWR08" H 3200 5200 50  0001 C CNN
F 1 "GND" H 3200 5300 50  0000 C CNN
F 2 "" H 3200 5450 50  0000 C CNN
F 3 "" H 3200 5450 50  0000 C CNN
	1    3200 5450
	1    0    0    -1  
$EndComp
$Comp
L D_Schottky_Small D1
U 1 1 5DD3B0F2
P 3550 4550
F 0 "D1" H 3600 4500 50  0000 L CNN
F 1 "1N5817" H 3400 4650 50  0000 L CNN
F 2 "Diodes_ThroughHole:Diode_DO-41_SOD81_Horizontal_RM10" V 3550 4550 50  0001 C CNN
F 3 "" V 3550 4550 50  0000 C CNN
	1    3550 4550
	-1   0    0    1   
$EndComp
Wire Wire Line
	3800 4150 4200 4150
Wire Wire Line
	3000 4450 4200 4450
Wire Wire Line
	4100 4450 4100 4700
Wire Wire Line
	3900 3700 4200 3700
Wire Wire Line
	4000 2450 4000 3900
Connection ~ 3800 3800
Wire Wire Line
	4000 2450 3600 2450
Connection ~ 4000 3550
Wire Wire Line
	3900 2550 3900 4000
Wire Wire Line
	3900 2550 3600 2550
Connection ~ 3900 3700
Wire Wire Line
	3600 2650 4200 2650
Wire Wire Line
	3800 3000 3800 2750
Wire Wire Line
	3800 2750 3600 2750
Wire Wire Line
	6600 3850 6250 3850
Wire Wire Line
	3800 3800 3000 3800
Wire Wire Line
	3900 4000 3000 4000
Wire Wire Line
	4000 3900 3000 3900
Wire Wire Line
	3000 3700 3600 3700
Wire Wire Line
	3600 3700 3600 4200
Wire Wire Line
	3800 3500 3800 4650
Wire Wire Line
	4000 3550 4200 3550
Wire Wire Line
	7600 2200 7600 2500
Wire Wire Line
	3800 3600 3000 3600
Connection ~ 3800 3600
Wire Wire Line
	3000 3500 3700 3500
Wire Wire Line
	3700 3500 3700 2200
Wire Wire Line
	3700 2200 7600 2200
Wire Wire Line
	6600 3850 6600 4300
Wire Wire Line
	6900 4300 6900 3700
Wire Wire Line
	6900 3700 6250 3700
Wire Wire Line
	6250 3550 7200 3550
Wire Wire Line
	7200 3550 7200 4350
Wire Wire Line
	6600 5200 7600 5200
Wire Wire Line
	6900 5200 6900 4900
Connection ~ 6900 5200
Wire Wire Line
	6600 4900 6600 5200
Wire Wire Line
	7050 5300 7050 5200
Connection ~ 7050 5200
Wire Wire Line
	7600 3700 7600 3600
Wire Wire Line
	7600 2800 7600 3000
Wire Wire Line
	7300 4600 7400 4600
Wire Wire Line
	7400 4600 7400 5200
Connection ~ 4100 4450
Wire Wire Line
	7650 4300 7650 4200
Wire Wire Line
	7650 4200 7200 4200
Connection ~ 7200 4200
Wire Wire Line
	7600 5200 7600 4900
Connection ~ 7400 5200
Connection ~ 3800 4150
Wire Wire Line
	3800 5050 3800 4950
Connection ~ 3800 4550
Wire Wire Line
	3000 4350 3200 4350
Wire Wire Line
	3200 4950 3200 5050
Wire Wire Line
	3200 5450 3200 5350
Wire Wire Line
	3200 4350 3200 4650
Wire Wire Line
	3200 5000 3300 5000
Wire Wire Line
	3300 5000 3300 2950
Wire Wire Line
	3300 2950 4200 2950
Connection ~ 3200 5000
Wire Wire Line
	3650 4550 3800 4550
Wire Wire Line
	3450 4550 3000 4550
Text GLabel 3200 3450 1    60   Input ~ 0
SCL
Wire Wire Line
	3200 3450 3200 4000
Connection ~ 3200 4000
Text GLabel 3050 3450 1    60   Input ~ 0
SDA
Wire Wire Line
	3050 3450 3050 3900
Connection ~ 3050 3900
$EndSCHEMATC
