(kicad_pcb (version 4) (host pcbnew 4.0.2+dfsg1-stable)

  (general
    (links 12)
    (no_connects 0)
    (area 0 0 0 0)
    (thickness 1.6)
    (drawings 0)
    (tracks 47)
    (zones 0)
    (modules 8)
    (nets 7)
  )

  (page A4)
  (layers
    (0 F.Cu signal)
    (31 B.Cu signal)
    (32 B.Adhes user)
    (33 F.Adhes user)
    (34 B.Paste user)
    (35 F.Paste user)
    (36 B.SilkS user)
    (37 F.SilkS user)
    (38 B.Mask user)
    (39 F.Mask user)
    (40 Dwgs.User user)
    (41 Cmts.User user)
    (42 Eco1.User user)
    (43 Eco2.User user)
    (44 Edge.Cuts user)
    (45 Margin user)
    (46 B.CrtYd user)
    (47 F.CrtYd user)
    (48 B.Fab user)
    (49 F.Fab user)
  )

  (setup
    (last_trace_width 0.5)
    (trace_clearance 0.2)
    (zone_clearance 0.4)
    (zone_45_only no)
    (trace_min 0.2)
    (segment_width 0.2)
    (edge_width 0.15)
    (via_size 1.2)
    (via_drill 0.4)
    (via_min_size 0.4)
    (via_min_drill 0.3)
    (uvia_size 0.3)
    (uvia_drill 0.1)
    (uvias_allowed no)
    (uvia_min_size 0.2)
    (uvia_min_drill 0.1)
    (pcb_text_width 0.3)
    (pcb_text_size 1.5 1.5)
    (mod_edge_width 0.15)
    (mod_text_size 1 1)
    (mod_text_width 0.15)
    (pad_size 8 8)
    (pad_drill 2.49936)
    (pad_to_mask_clearance 0.2)
    (aux_axis_origin 0 0)
    (visible_elements FFFFFF7F)
    (pcbplotparams
      (layerselection 0x00030_80000001)
      (usegerberextensions false)
      (excludeedgelayer true)
      (linewidth 0.100000)
      (plotframeref false)
      (viasonmask false)
      (mode 1)
      (useauxorigin false)
      (hpglpennumber 1)
      (hpglpenspeed 20)
      (hpglpendiameter 15)
      (hpglpenoverlay 2)
      (psnegative false)
      (psa4output false)
      (plotreference true)
      (plotvalue true)
      (plotinvisibletext false)
      (padsonsilk false)
      (subtractmaskfromsilk false)
      (outputformat 1)
      (mirror false)
      (drillshape 1)
      (scaleselection 1)
      (outputdirectory ""))
  )

  (net 0 "")
  (net 1 "Net-(D1-Pad1)")
  (net 2 "Net-(D1-Pad2)")
  (net 3 "Net-(P1-Pad5)")
  (net 4 "Net-(P1-Pad6)")
  (net 5 GND)
  (net 6 "Net-(C1-Pad2)")

  (net_class Default "This is the default net class."
    (clearance 0.2)
    (trace_width 0.5)
    (via_dia 1.2)
    (via_drill 0.4)
    (uvia_dia 0.3)
    (uvia_drill 0.1)
    (add_net GND)
    (add_net "Net-(C1-Pad2)")
    (add_net "Net-(D1-Pad1)")
    (add_net "Net-(D1-Pad2)")
    (add_net "Net-(P1-Pad5)")
    (add_net "Net-(P1-Pad6)")
  )

  (module Wire_Pads:SolderWirePad_single_2-5mmDrill (layer F.Cu) (tedit 5DEE6241) (tstamp 5DEE18AE)
    (at 144.145 102.87)
    (fp_text reference "" (at 0 -5.08) (layer F.SilkS)
      (effects (font (size 1 1) (thickness 0.15)))
    )
    (fp_text value "" (at 1.27 5.08) (layer F.Fab)
      (effects (font (size 1 1) (thickness 0.15)))
    )
    (pad "" thru_hole circle (at 0 0) (size 8 8) (drill 2.49936) (layers *.Cu *.Mask F.SilkS))
  )

  (module LEDs:LED-3MM (layer F.Cu) (tedit 5DEE689F) (tstamp 5DED0A6E)
    (at 163.195 96.52)
    (descr "LED 3mm round vertical")
    (tags "LED  3mm round vertical")
    (path /5DED069B)
    (fp_text reference D1 (at -1.905 0 90) (layer F.SilkS)
      (effects (font (size 1 1) (thickness 0.15)))
    )
    (fp_text value LASER (at 1.27 -3.81) (layer F.Fab)
      (effects (font (size 1 1) (thickness 0.15)))
    )
    (fp_line (start -1.2 2.3) (end 3.8 2.3) (layer F.CrtYd) (width 0.05))
    (fp_line (start 3.8 2.3) (end 3.8 -2.2) (layer F.CrtYd) (width 0.05))
    (fp_line (start 3.8 -2.2) (end -1.2 -2.2) (layer F.CrtYd) (width 0.05))
    (fp_line (start -1.2 -2.2) (end -1.2 2.3) (layer F.CrtYd) (width 0.05))
    (fp_line (start -0.199 1.314) (end -0.199 1.114) (layer F.SilkS) (width 0.15))
    (fp_line (start -0.199 -1.28) (end -0.199 -1.1) (layer F.SilkS) (width 0.15))
    (fp_arc (start 1.301 0.034) (end -0.199 -1.286) (angle 108.5) (layer F.SilkS) (width 0.15))
    (fp_arc (start 1.301 0.034) (end 0.25 -1.1) (angle 85.7) (layer F.SilkS) (width 0.15))
    (fp_arc (start 1.311 0.034) (end 3.051 0.994) (angle 110) (layer F.SilkS) (width 0.15))
    (fp_arc (start 1.301 0.034) (end 2.335 1.094) (angle 87.5) (layer F.SilkS) (width 0.15))
    (fp_text user K (at -1.69 1.74) (layer F.SilkS)
      (effects (font (size 1 1) (thickness 0.15)))
    )
    (pad 1 thru_hole rect (at 0 0 90) (size 2 2) (drill 1.00076) (layers *.Cu *.Mask F.SilkS)
      (net 1 "Net-(D1-Pad1)"))
    (pad 2 thru_hole circle (at 2.54 0) (size 2 2) (drill 1.00076) (layers *.Cu *.Mask F.SilkS)
      (net 2 "Net-(D1-Pad2)"))
    (model LEDs.3dshapes/LED-3MM.wrl
      (at (xyz 0.05 0 0))
      (scale (xyz 1 1 1))
      (rotate (xyz 0 0 90))
    )
  )

  (module Pin_Headers:Pin_Header_Straight_1x06 (layer F.Cu) (tedit 5DEE68A6) (tstamp 5DED0A78)
    (at 160.02 96.52 270)
    (descr "Through hole pin header")
    (tags "pin header")
    (path /5DED0653)
    (fp_text reference P1 (at 2.54 -0.635 360) (layer F.SilkS)
      (effects (font (size 1 1) (thickness 0.15)))
    )
    (fp_text value THERMOMETER (at -3.81 6.35 360) (layer F.Fab)
      (effects (font (size 1 1) (thickness 0.15)))
    )
    (fp_line (start -1.75 -1.75) (end -1.75 14.45) (layer F.CrtYd) (width 0.05))
    (fp_line (start 1.75 -1.75) (end 1.75 14.45) (layer F.CrtYd) (width 0.05))
    (fp_line (start -1.75 -1.75) (end 1.75 -1.75) (layer F.CrtYd) (width 0.05))
    (fp_line (start -1.75 14.45) (end 1.75 14.45) (layer F.CrtYd) (width 0.05))
    (fp_line (start 1.27 1.27) (end 1.27 13.97) (layer F.SilkS) (width 0.15))
    (fp_line (start 1.27 13.97) (end -1.27 13.97) (layer F.SilkS) (width 0.15))
    (fp_line (start -1.27 13.97) (end -1.27 1.27) (layer F.SilkS) (width 0.15))
    (fp_line (start 1.55 -1.55) (end 1.55 0) (layer F.SilkS) (width 0.15))
    (fp_line (start 1.27 1.27) (end -1.27 1.27) (layer F.SilkS) (width 0.15))
    (fp_line (start -1.55 0) (end -1.55 -1.55) (layer F.SilkS) (width 0.15))
    (fp_line (start -1.55 -1.55) (end 1.55 -1.55) (layer F.SilkS) (width 0.15))
    (pad 1 thru_hole rect (at 0 0 270) (size 2.032 1.7272) (drill 1.016) (layers *.Cu *.Mask F.SilkS)
      (net 1 "Net-(D1-Pad1)"))
    (pad 2 thru_hole oval (at 0 2.54 270) (size 2.032 1.7272) (drill 1.016) (layers *.Cu *.Mask F.SilkS)
      (net 2 "Net-(D1-Pad2)"))
    (pad 3 thru_hole oval (at 0 5.08 270) (size 2.032 1.7272) (drill 1.016) (layers *.Cu *.Mask F.SilkS)
      (net 5 GND))
    (pad 4 thru_hole oval (at 0 7.62 270) (size 2.032 1.7272) (drill 1.016) (layers *.Cu *.Mask F.SilkS)
      (net 6 "Net-(C1-Pad2)"))
    (pad 5 thru_hole oval (at 0 10.16 270) (size 2.032 1.7272) (drill 1.016) (layers *.Cu *.Mask F.SilkS)
      (net 3 "Net-(P1-Pad5)"))
    (pad 6 thru_hole oval (at 0 12.7 270) (size 2.032 1.7272) (drill 1.016) (layers *.Cu *.Mask F.SilkS)
      (net 4 "Net-(P1-Pad6)"))
    (model Pin_Headers.3dshapes/Pin_Header_Straight_1x06.wrl
      (at (xyz 0 -0.25 0))
      (scale (xyz 1 1 1))
      (rotate (xyz 0 0 90))
    )
  )

  (module Wire_Pads:SolderWirePad_single_2-5mmDrill (layer F.Cu) (tedit 5DEE623A) (tstamp 5DEE1894)
    (at 163.195 102.87)
    (fp_text reference "" (at 0 -5.08) (layer F.SilkS)
      (effects (font (size 1 1) (thickness 0.15)))
    )
    (fp_text value "" (at 1.27 5.08) (layer F.Fab)
      (effects (font (size 1 1) (thickness 0.15)))
    )
    (pad "" thru_hole circle (at 0 0) (size 8 8) (drill 2.49936) (layers *.Cu *.Mask F.SilkS))
  )

  (module myTransistors:TO-39-4 (layer F.Cu) (tedit 5A02FF81) (tstamp 5DEF7D09)
    (at 151.13 102.87)
    (descr TO-39-4)
    (tags TO-39-4)
    (path /5DEF7B5D)
    (fp_text reference U1 (at 2.54 -5.82) (layer F.SilkS)
      (effects (font (size 1 1) (thickness 0.15)))
    )
    (fp_text value MLX90614 (at 2.54 5.82) (layer F.Fab)
      (effects (font (size 1 1) (thickness 0.15)))
    )
    (fp_text user %R (at 2.54 -5.82) (layer F.Fab)
      (effects (font (size 1 1) (thickness 0.15)))
    )
    (fp_line (start -0.465408 -3.61352) (end -1.27151 -4.419621) (layer F.Fab) (width 0.1))
    (fp_line (start -1.27151 -4.419621) (end -1.879621 -3.81151) (layer F.Fab) (width 0.1))
    (fp_line (start -1.879621 -3.81151) (end -1.07352 -3.005408) (layer F.Fab) (width 0.1))
    (fp_line (start -0.457084 -3.774902) (end -1.348039 -4.665856) (layer F.SilkS) (width 0.12))
    (fp_line (start -1.348039 -4.665856) (end -2.125856 -3.888039) (layer F.SilkS) (width 0.12))
    (fp_line (start -2.125856 -3.888039) (end -1.234902 -2.997084) (layer F.SilkS) (width 0.12))
    (fp_line (start -2.41 -4.95) (end -2.41 4.95) (layer F.CrtYd) (width 0.05))
    (fp_line (start -2.41 4.95) (end 7.49 4.95) (layer F.CrtYd) (width 0.05))
    (fp_line (start 7.49 4.95) (end 7.49 -4.95) (layer F.CrtYd) (width 0.05))
    (fp_line (start 7.49 -4.95) (end -2.41 -4.95) (layer F.CrtYd) (width 0.05))
    (fp_circle (center 2.54 0) (end 6.79 0) (layer F.Fab) (width 0.1))
    (fp_arc (start 2.54 0) (end -0.465408 -3.61352) (angle 349.5) (layer F.Fab) (width 0.1))
    (fp_arc (start 2.54 0) (end -0.457084 -3.774902) (angle 346.9) (layer F.SilkS) (width 0.12))
    (pad 1 thru_hole oval (at 0 0) (size 1.6 1.2) (drill 0.7) (layers *.Cu *.Mask)
      (net 4 "Net-(P1-Pad6)"))
    (pad 2 thru_hole oval (at 2.54 2.54) (size 1.2 1.2) (drill 0.7) (layers *.Cu *.Mask)
      (net 3 "Net-(P1-Pad5)"))
    (pad 3 thru_hole oval (at 5.08 0) (size 1.2 1.2) (drill 0.7) (layers *.Cu *.Mask)
      (net 6 "Net-(C1-Pad2)"))
    (pad 4 thru_hole oval (at 2.54 -2.54) (size 1.2 1.2) (drill 0.7) (layers *.Cu *.Mask)
      (net 5 GND))
    (model ${KISYS3DMOD}/Package_TO_SOT_THT.3dshapes/TO-39-4.wrl
      (at (xyz 0 0 0))
      (scale (xyz 1 1 1))
      (rotate (xyz 0 0 0))
    )
  )

  (module Capacitors_ThroughHole:C_Rect_L7_W2_P5 (layer F.Cu) (tedit 5DEF7E2B) (tstamp 5DEF7E12)
    (at 164.465 108.585 180)
    (descr "Film Capacitor Length 7 x Width 2mm, Pitch 5mm")
    (tags Capacitor)
    (path /5DEF7CEC)
    (fp_text reference C1 (at 2.5 -2.25 180) (layer F.SilkS)
      (effects (font (size 1 1) (thickness 0.15)))
    )
    (fp_text value 0.1µF (at 2.54 0 180) (layer F.Fab)
      (effects (font (size 1 1) (thickness 0.15)))
    )
    (fp_line (start -1.25 -1.25) (end 6.25 -1.25) (layer F.CrtYd) (width 0.05))
    (fp_line (start 6.25 -1.25) (end 6.25 1.25) (layer F.CrtYd) (width 0.05))
    (fp_line (start 6.25 1.25) (end -1.25 1.25) (layer F.CrtYd) (width 0.05))
    (fp_line (start -1.25 1.25) (end -1.25 -1.25) (layer F.CrtYd) (width 0.05))
    (fp_line (start -1 -1) (end 6 -1) (layer F.SilkS) (width 0.15))
    (fp_line (start 6 -1) (end 6 1) (layer F.SilkS) (width 0.15))
    (fp_line (start 6 1) (end -1 1) (layer F.SilkS) (width 0.15))
    (fp_line (start -1 1) (end -1 -1) (layer F.SilkS) (width 0.15))
    (pad 1 thru_hole rect (at 0 0 180) (size 1.3 1.3) (drill 0.8) (layers *.Cu *.Mask F.SilkS)
      (net 5 GND))
    (pad 2 thru_hole circle (at 5 0 180) (size 1.3 1.3) (drill 0.8) (layers *.Cu *.Mask F.SilkS)
      (net 6 "Net-(C1-Pad2)"))
    (model Capacitors_ThroughHole.3dshapes/C_Rect_L7_W2_P5.wrl
      (at (xyz 0.098425 0 0))
      (scale (xyz 1 1 1))
      (rotate (xyz 0 0 0))
    )
  )

  (module Resistors_ThroughHole:Resistor_Horizontal_RM10mm (layer F.Cu) (tedit 5DEF7E4E) (tstamp 5DEF7E22)
    (at 169.545 107.315 90)
    (descr "Resistor, Axial,  RM 10mm, 1/3W")
    (tags "Resistor Axial RM 10mm 1/3W")
    (path /5DEF7DB6)
    (fp_text reference R1 (at -2.54 0 180) (layer F.SilkS)
      (effects (font (size 1 1) (thickness 0.15)))
    )
    (fp_text value 10K (at 5.08 0 90) (layer F.Fab)
      (effects (font (size 1 1) (thickness 0.15)))
    )
    (fp_line (start -1.25 -1.5) (end 11.4 -1.5) (layer F.CrtYd) (width 0.05))
    (fp_line (start -1.25 1.5) (end -1.25 -1.5) (layer F.CrtYd) (width 0.05))
    (fp_line (start 11.4 -1.5) (end 11.4 1.5) (layer F.CrtYd) (width 0.05))
    (fp_line (start -1.25 1.5) (end 11.4 1.5) (layer F.CrtYd) (width 0.05))
    (fp_line (start 2.54 -1.27) (end 7.62 -1.27) (layer F.SilkS) (width 0.15))
    (fp_line (start 7.62 -1.27) (end 7.62 1.27) (layer F.SilkS) (width 0.15))
    (fp_line (start 7.62 1.27) (end 2.54 1.27) (layer F.SilkS) (width 0.15))
    (fp_line (start 2.54 1.27) (end 2.54 -1.27) (layer F.SilkS) (width 0.15))
    (fp_line (start 2.54 0) (end 1.27 0) (layer F.SilkS) (width 0.15))
    (fp_line (start 7.62 0) (end 8.89 0) (layer F.SilkS) (width 0.15))
    (pad 1 thru_hole circle (at 0 0 90) (size 1.99898 1.99898) (drill 1.00076) (layers *.Cu *.SilkS *.Mask)
      (net 3 "Net-(P1-Pad5)"))
    (pad 2 thru_hole circle (at 10.16 0 90) (size 1.99898 1.99898) (drill 1.00076) (layers *.Cu *.SilkS *.Mask)
      (net 5 GND))
    (model Resistors_ThroughHole.3dshapes/Resistor_Horizontal_RM10mm.wrl
      (at (xyz 0 0 0))
      (scale (xyz 0.4 0.4 0.4))
      (rotate (xyz 0 0 0))
    )
  )

  (module Resistors_ThroughHole:Resistor_Horizontal_RM10mm (layer F.Cu) (tedit 5DEF7E47) (tstamp 5DEF7E32)
    (at 137.795 106.68 90)
    (descr "Resistor, Axial,  RM 10mm, 1/3W")
    (tags "Resistor Axial RM 10mm 1/3W")
    (path /5DEF7E0A)
    (fp_text reference R2 (at -2.54 0 180) (layer F.SilkS)
      (effects (font (size 1 1) (thickness 0.15)))
    )
    (fp_text value 10K (at 5.08 0 90) (layer F.Fab)
      (effects (font (size 1 1) (thickness 0.15)))
    )
    (fp_line (start -1.25 -1.5) (end 11.4 -1.5) (layer F.CrtYd) (width 0.05))
    (fp_line (start -1.25 1.5) (end -1.25 -1.5) (layer F.CrtYd) (width 0.05))
    (fp_line (start 11.4 -1.5) (end 11.4 1.5) (layer F.CrtYd) (width 0.05))
    (fp_line (start -1.25 1.5) (end 11.4 1.5) (layer F.CrtYd) (width 0.05))
    (fp_line (start 2.54 -1.27) (end 7.62 -1.27) (layer F.SilkS) (width 0.15))
    (fp_line (start 7.62 -1.27) (end 7.62 1.27) (layer F.SilkS) (width 0.15))
    (fp_line (start 7.62 1.27) (end 2.54 1.27) (layer F.SilkS) (width 0.15))
    (fp_line (start 2.54 1.27) (end 2.54 -1.27) (layer F.SilkS) (width 0.15))
    (fp_line (start 2.54 0) (end 1.27 0) (layer F.SilkS) (width 0.15))
    (fp_line (start 7.62 0) (end 8.89 0) (layer F.SilkS) (width 0.15))
    (pad 1 thru_hole circle (at 0 0 90) (size 1.99898 1.99898) (drill 1.00076) (layers *.Cu *.SilkS *.Mask)
      (net 4 "Net-(P1-Pad6)"))
    (pad 2 thru_hole circle (at 10.16 0 90) (size 1.99898 1.99898) (drill 1.00076) (layers *.Cu *.SilkS *.Mask)
      (net 5 GND))
    (model Resistors_ThroughHole.3dshapes/Resistor_Horizontal_RM10mm.wrl
      (at (xyz 0 0 0))
      (scale (xyz 0.4 0.4 0.4))
      (rotate (xyz 0 0 0))
    )
  )

  (segment (start 160.02 96.52) (end 163.195 96.52) (width 0.5) (layer B.Cu) (net 1))
  (segment (start 157.48 96.52) (end 157.48 97.79) (width 0.5) (layer B.Cu) (net 2))
  (segment (start 165.862 97.79) (end 165.862 96.647) (width 0.5) (layer B.Cu) (net 2) (tstamp 5DEF7F39))
  (segment (start 165.354 98.298) (end 165.862 97.79) (width 0.5) (layer B.Cu) (net 2) (tstamp 5DEF7F38))
  (segment (start 157.988 98.298) (end 165.354 98.298) (width 0.5) (layer B.Cu) (net 2) (tstamp 5DEF7F37))
  (segment (start 157.48 97.79) (end 157.988 98.298) (width 0.5) (layer B.Cu) (net 2) (tstamp 5DEF7F36))
  (segment (start 165.862 96.647) (end 165.735 96.52) (width 0.5) (layer B.Cu) (net 2) (tstamp 5DEF7F3A))
  (segment (start 169.545 107.315) (end 169.545 108.839) (width 0.5) (layer B.Cu) (net 3) (status 400000))
  (segment (start 153.67 107.95) (end 153.67 105.41) (width 0.5) (layer B.Cu) (net 3) (tstamp 5DEF7FC7) (status 800000))
  (segment (start 155.829 110.109) (end 153.67 107.95) (width 0.5) (layer B.Cu) (net 3) (tstamp 5DEF7FC5))
  (segment (start 168.275 110.109) (end 155.829 110.109) (width 0.5) (layer B.Cu) (net 3) (tstamp 5DEF7FC4))
  (segment (start 169.545 108.839) (end 168.275 110.109) (width 0.5) (layer B.Cu) (net 3) (tstamp 5DEF7FC3))
  (segment (start 149.86 96.52) (end 149.86 99.568) (width 0.5) (layer B.Cu) (net 3) (status 400000))
  (segment (start 153.67 103.378) (end 153.67 105.41) (width 0.5) (layer B.Cu) (net 3) (tstamp 5DEF7F9E) (status 800000))
  (segment (start 149.86 99.568) (end 153.67 103.378) (width 0.5) (layer B.Cu) (net 3) (tstamp 5DEF7F9C))
  (segment (start 137.795 106.68) (end 137.795 107.315) (width 0.5) (layer B.Cu) (net 4) (status C00000))
  (segment (start 137.795 107.315) (end 138.43 107.95) (width 0.5) (layer B.Cu) (net 4) (tstamp 5DEF7FA6) (status 400000))
  (segment (start 138.43 107.95) (end 147.193 107.95) (width 0.5) (layer B.Cu) (net 4) (tstamp 5DEF7FA7))
  (segment (start 147.193 107.95) (end 151.13 104.013) (width 0.5) (layer B.Cu) (net 4) (tstamp 5DEF7FA8))
  (segment (start 151.13 104.013) (end 151.13 102.87) (width 0.5) (layer B.Cu) (net 4) (tstamp 5DEF7FAA) (status 800000))
  (segment (start 147.32 96.52) (end 147.32 98.425) (width 0.5) (layer B.Cu) (net 4) (status 400000))
  (segment (start 151.13 102.235) (end 151.13 102.87) (width 0.5) (layer B.Cu) (net 4) (tstamp 5DEF7F88) (status 800000))
  (segment (start 147.32 98.425) (end 151.13 102.235) (width 0.5) (layer B.Cu) (net 4) (tstamp 5DEF7F87))
  (segment (start 147.32 96.52) (end 147.32 97.155) (width 0.5) (layer B.Cu) (net 4))
  (segment (start 154.94 100.33) (end 154.94 96.52) (width 0.5) (layer B.Cu) (net 5) (status 800000))
  (segment (start 164.465 108.585) (end 161.544 108.585) (width 0.5) (layer B.Cu) (net 5) (status 400000))
  (segment (start 161.544 108.585) (end 157.861 104.902) (width 0.5) (layer B.Cu) (net 5) (tstamp 5DEF7FAD))
  (segment (start 157.861 104.902) (end 157.861 101.981) (width 0.5) (layer B.Cu) (net 5) (tstamp 5DEF7FAE))
  (segment (start 157.861 101.981) (end 156.21 100.33) (width 0.5) (layer B.Cu) (net 5) (tstamp 5DEF7FB0))
  (segment (start 156.21 100.33) (end 154.94 100.33) (width 0.5) (layer B.Cu) (net 5) (tstamp 5DEF7FB1))
  (segment (start 154.94 100.33) (end 153.67 100.33) (width 0.5) (layer B.Cu) (net 5) (tstamp 5DEF7FB7) (status 800000))
  (segment (start 157.226 94.234) (end 166.624 94.234) (width 0.5) (layer B.Cu) (net 5))
  (segment (start 166.624 94.234) (end 169.545 97.155) (width 0.5) (layer B.Cu) (net 5) (tstamp 5DEF7F40))
  (segment (start 152.527 94.234) (end 140.081 94.234) (width 0.5) (layer B.Cu) (net 5))
  (segment (start 154.94 94.234) (end 152.527 94.234) (width 0.5) (layer B.Cu) (net 5) (tstamp 5DEE29F0))
  (segment (start 140.081 94.234) (end 137.795 96.52) (width 0.5) (layer B.Cu) (net 5) (tstamp 5DEF7F32))
  (segment (start 154.94 94.234) (end 157.226 94.234) (width 0.5) (layer B.Cu) (net 5))
  (segment (start 157.226 94.234) (end 157.353 94.234) (width 0.5) (layer B.Cu) (net 5) (tstamp 5DEF7F3E))
  (segment (start 154.94 96.52) (end 154.94 94.234) (width 0.5) (layer B.Cu) (net 5))
  (segment (start 159.465 108.585) (end 158.242 108.585) (width 0.5) (layer B.Cu) (net 6) (status 400000))
  (segment (start 156.21 106.553) (end 156.21 102.87) (width 0.5) (layer B.Cu) (net 6) (tstamp 5DEF7FBF) (status 800000))
  (segment (start 158.242 108.585) (end 156.21 106.553) (width 0.5) (layer B.Cu) (net 6) (tstamp 5DEF7FBE))
  (segment (start 151.765 99.06) (end 151.765 100.203) (width 0.5) (layer B.Cu) (net 6))
  (segment (start 154.432 102.87) (end 156.21 102.87) (width 0.5) (layer B.Cu) (net 6) (tstamp 5DEF7FA3) (status 800000))
  (segment (start 151.765 100.203) (end 154.432 102.87) (width 0.5) (layer B.Cu) (net 6) (tstamp 5DEF7FA2))
  (segment (start 152.4 96.52) (end 152.4 98.425) (width 0.5) (layer B.Cu) (net 6))
  (segment (start 152.4 98.425) (end 151.765 99.06) (width 0.5) (layer B.Cu) (net 6) (tstamp 5DEF7E70))

  (zone (net 5) (net_name GND) (layer B.Cu) (tstamp 5DED0CB8) (hatch edge 0.508)
    (connect_pads (clearance 0.4))
    (min_thickness 0.254)
    (fill yes (arc_segments 16) (thermal_gap 2) (thermal_bridge_width 1))
    (polygon
      (pts
        (xy 135.89 110.49) (xy 135.89 93.98) (xy 171.45 93.98) (xy 171.45 110.49)
      )
    )
    (filled_polygon
      (pts
        (xy 167.985927 94.374535) (xy 167.949293 95.031792) (xy 169.545 96.627498) (xy 169.559142 96.613356) (xy 170.086644 97.140858)
        (xy 170.072502 97.155) (xy 170.086644 97.169142) (xy 169.559142 97.696644) (xy 169.545 97.682502) (xy 167.949293 99.278208)
        (xy 167.985927 99.935465) (xy 169.168642 100.320447) (xy 170.408655 100.223517) (xy 171.104073 99.935465) (xy 171.140707 99.278211)
        (xy 171.323 99.460504) (xy 171.323 110.363) (xy 169.119844 110.363) (xy 170.094422 109.388422) (xy 170.262854 109.136345)
        (xy 170.322 108.839) (xy 170.322 108.645615) (xy 170.408558 108.60985) (xy 170.838341 108.180816) (xy 171.071225 107.61997)
        (xy 171.071755 107.012694) (xy 170.83985 106.451442) (xy 170.410816 106.021659) (xy 169.84997 105.788775) (xy 169.242694 105.788245)
        (xy 168.681442 106.02015) (xy 168.251659 106.449184) (xy 168.018775 107.01003) (xy 168.018245 107.617306) (xy 168.25015 108.178558)
        (xy 168.678001 108.607155) (xy 167.953156 109.332) (xy 167.13225 109.332) (xy 166.71025 108.91) (xy 164.79 108.91)
        (xy 164.79 108.978) (xy 164.14 108.978) (xy 164.14 108.91) (xy 162.21975 108.91) (xy 161.79775 109.332)
        (xy 160.382679 109.332) (xy 160.46223 109.252588) (xy 160.641795 108.820147) (xy 160.642204 108.351907) (xy 160.463394 107.919154)
        (xy 160.132588 107.58777) (xy 159.700147 107.408205) (xy 159.231907 107.407796) (xy 158.799154 107.586606) (xy 158.577373 107.808)
        (xy 158.563844 107.808) (xy 156.987 106.231156) (xy 156.987 103.694965) (xy 157.028988 103.666909) (xy 157.273291 103.301284)
        (xy 157.359079 102.87) (xy 157.273291 102.438716) (xy 157.028988 102.073091) (xy 156.663363 101.828788) (xy 156.232079 101.743)
        (xy 156.187921 101.743) (xy 155.942585 101.7918) (xy 156.039144 101.680464) (xy 156.300148 101.050314) (xy 155.844655 100.63)
        (xy 153.97 100.63) (xy 153.97 100.723) (xy 153.383844 100.723) (xy 153.37 100.709156) (xy 153.37 100.63)
        (xy 153.290844 100.63) (xy 153.277 100.616156) (xy 153.277 100.03) (xy 153.37 100.03) (xy 153.37 99.937)
        (xy 153.97 99.937) (xy 153.97 100.03) (xy 155.844655 100.03) (xy 156.300148 99.609686) (xy 156.194202 99.353897)
        (xy 156.511261 99.210362) (xy 157.178785 98.587629) (xy 157.438578 98.847422) (xy 157.690655 99.015854) (xy 157.988 99.075)
        (xy 160.588891 99.075) (xy 159.359434 100.302312) (xy 158.668788 101.965574) (xy 158.667216 103.766525) (xy 159.354959 105.430989)
        (xy 160.627312 106.705566) (xy 161.817323 107.199701) (xy 161.688 107.511914) (xy 161.688 107.72825) (xy 162.21975 108.26)
        (xy 164.14 108.26) (xy 164.14 108.192) (xy 164.79 108.192) (xy 164.79 108.26) (xy 166.71025 108.26)
        (xy 167.242 107.72825) (xy 167.242 107.511914) (xy 166.918184 106.730152) (xy 166.32753 106.139498) (xy 167.030566 105.437688)
        (xy 167.721212 103.774426) (xy 167.722784 101.973475) (xy 167.035041 100.309011) (xy 165.762688 99.034434) (xy 165.67687 98.998799)
        (xy 165.903422 98.847422) (xy 166.411422 98.339422) (xy 166.533606 98.156561) (xy 166.764535 98.714073) (xy 167.421792 98.750707)
        (xy 169.017498 97.155) (xy 167.421792 95.559293) (xy 166.959323 95.58507) (xy 166.601106 95.226227) (xy 166.040072 94.993265)
        (xy 165.432593 94.992735) (xy 164.871154 95.224717) (xy 164.707502 95.388083) (xy 164.695577 95.324706) (xy 164.580158 95.14534)
        (xy 164.404049 95.02501) (xy 164.195 94.982676) (xy 162.195 94.982676) (xy 161.999706 95.019423) (xy 161.82034 95.134842)
        (xy 161.70001 95.310951) (xy 161.657676 95.52) (xy 161.657676 95.743) (xy 161.420924 95.743) (xy 161.420924 95.504)
        (xy 161.384177 95.308706) (xy 161.268758 95.12934) (xy 161.092649 95.00901) (xy 160.8836 94.966676) (xy 159.1564 94.966676)
        (xy 158.961106 95.003423) (xy 158.78174 95.118842) (xy 158.66141 95.294951) (xy 158.619076 95.504) (xy 158.619076 95.587199)
        (xy 158.463303 95.354068) (xy 158.01216 95.052624) (xy 157.512825 94.9533) (xy 157.362892 94.624124) (xy 156.808573 94.107)
        (xy 168.631813 94.107)
      )
    )
    (filled_polygon
      (pts
        (xy 152.517108 94.624124) (xy 152.367175 94.9533) (xy 151.86784 95.052624) (xy 151.416697 95.354068) (xy 151.13 95.783141)
        (xy 150.843303 95.354068) (xy 150.39216 95.052624) (xy 149.86 94.946771) (xy 149.32784 95.052624) (xy 148.876697 95.354068)
        (xy 148.59 95.783141) (xy 148.303303 95.354068) (xy 147.85216 95.052624) (xy 147.32 94.946771) (xy 146.78784 95.052624)
        (xy 146.336697 95.354068) (xy 146.035253 95.805211) (xy 145.9294 96.337371) (xy 145.9294 96.702629) (xy 146.035253 97.234789)
        (xy 146.336697 97.685932) (xy 146.543 97.823779) (xy 146.543 98.425) (xy 146.602146 98.722345) (xy 146.770578 98.974422)
        (xy 150.011826 102.21567) (xy 149.862791 102.438716) (xy 149.777003 102.87) (xy 149.862791 103.301284) (xy 150.107094 103.666909)
        (xy 150.269039 103.775117) (xy 146.871156 107.173) (xy 145.585543 107.173) (xy 146.705989 106.710041) (xy 147.980566 105.437688)
        (xy 148.671212 103.774426) (xy 148.672784 101.973475) (xy 147.985041 100.309011) (xy 146.712688 99.034434) (xy 145.049426 98.343788)
        (xy 143.248475 98.342216) (xy 141.584011 99.029959) (xy 140.309434 100.302312) (xy 139.618788 101.965574) (xy 139.617216 103.766525)
        (xy 140.304959 105.430989) (xy 141.577312 106.705566) (xy 142.703019 107.173) (xy 139.243148 107.173) (xy 139.321225 106.98497)
        (xy 139.321755 106.377694) (xy 139.08985 105.816442) (xy 138.660816 105.386659) (xy 138.09997 105.153775) (xy 137.492694 105.153245)
        (xy 136.931442 105.38515) (xy 136.501659 105.814184) (xy 136.268775 106.37503) (xy 136.268245 106.982306) (xy 136.50015 107.543558)
        (xy 136.929184 107.973341) (xy 137.49003 108.206225) (xy 137.587466 108.20631) (xy 137.880578 108.499422) (xy 138.132655 108.667854)
        (xy 138.43 108.727) (xy 147.193 108.727) (xy 147.490345 108.667854) (xy 147.742422 108.499422) (xy 151.679422 104.562422)
        (xy 151.847854 104.310345) (xy 151.907 104.013) (xy 151.907 103.831218) (xy 152.152906 103.666909) (xy 152.397209 103.301284)
        (xy 152.413341 103.220185) (xy 152.893 103.699844) (xy 152.893 104.585035) (xy 152.851012 104.613091) (xy 152.606709 104.978716)
        (xy 152.520921 105.41) (xy 152.606709 105.841284) (xy 152.851012 106.206909) (xy 152.893 106.234965) (xy 152.893 107.95)
        (xy 152.952146 108.247345) (xy 153.120578 108.499422) (xy 154.984156 110.363) (xy 136.017 110.363) (xy 136.017 98.825504)
        (xy 136.199293 98.643211) (xy 136.235927 99.300465) (xy 137.418642 99.685447) (xy 138.658655 99.588517) (xy 139.354073 99.300465)
        (xy 139.390707 98.643208) (xy 137.795 97.047502) (xy 137.780858 97.061644) (xy 137.253356 96.534142) (xy 137.267498 96.52)
        (xy 138.322502 96.52) (xy 139.918208 98.115707) (xy 140.575465 98.079073) (xy 140.960447 96.896358) (xy 140.863517 95.656345)
        (xy 140.575465 94.960927) (xy 139.918208 94.924293) (xy 138.322502 96.52) (xy 137.267498 96.52) (xy 137.253356 96.505858)
        (xy 137.780858 95.978356) (xy 137.795 95.992498) (xy 139.390707 94.396792) (xy 139.374555 94.107) (xy 153.071427 94.107)
      )
    )
    (filled_polygon
      (pts
        (xy 155.313 96.147) (xy 155.333 96.147) (xy 155.333 96.893) (xy 155.313 96.893) (xy 155.313 96.913)
        (xy 154.567 96.913) (xy 154.567 96.893) (xy 154.547 96.893) (xy 154.547 96.147) (xy 154.567 96.147)
        (xy 154.567 96.127) (xy 155.313 96.127)
      )
    )
  )
)
